%YAML 1.1
%TAG !u! tag:unity3d.com,2011:
--- !u!114 &11400000
MonoBehaviour:
  m_ObjectHideFlags: 0
  m_CorrespondingSourceObject: {fileID: 0}
  m_PrefabInstance: {fileID: 0}
  m_PrefabAsset: {fileID: 0}
  m_GameObject: {fileID: 0}
  m_Enabled: 1
  m_EditorHideFlags: 0
  m_Script: {fileID: 11500000, guid: 921e4e14bed29b84081156d446c859c6, type: 3}
  m_Name: ccOrcSpearThrow
  m_EditorClassIdentifier: 
  state: 2
  hasTarget: 1
  specificCondition:
    name: 
    active: 0
    setToZeroTime: 0
  typicalConditions:
  - condition: 0
    shouldBe: 2
    value: 20
  - condition: 0
    shouldBe: 0
    value: 8
