%YAML 1.1
%TAG !u! tag:unity3d.com,2011:
--- !u!1 &7013154796910741150
GameObject:
  m_ObjectHideFlags: 0
  m_CorrespondingSourceObject: {fileID: 0}
  m_PrefabInstance: {fileID: 0}
  m_PrefabAsset: {fileID: 0}
  serializedVersion: 6
  m_Component:
  - component: {fileID: 6525588364504809469}
  m_Layer: 0
  m_Name: wpn_staff_doubleblade
  m_TagString: Untagged
  m_Icon: {fileID: 0}
  m_NavMeshLayer: 0
  m_StaticEditorFlags: 0
  m_IsActive: 1
--- !u!4 &6525588364504809469
Transform:
  m_ObjectHideFlags: 0
  m_CorrespondingSourceObject: {fileID: 0}
  m_PrefabInstance: {fileID: 0}
  m_PrefabAsset: {fileID: 0}
  m_GameObject: {fileID: 7013154796910741150}
  m_LocalRotation: {x: 0, y: 0, z: 0, w: 1}
  m_LocalPosition: {x: 0, y: 0, z: 0}
  m_LocalScale: {x: 1, y: 1, z: 1}
  m_Children:
  - {fileID: 3517394357432833685}
  m_Father: {fileID: 0}
  m_RootOrder: 0
  m_LocalEulerAnglesHint: {x: 0, y: 0, z: 0}
--- !u!1001 &3517394357432381121
PrefabInstance:
  m_ObjectHideFlags: 0
  serializedVersion: 2
  m_Modification:
    m_TransformParent: {fileID: 6525588364504809469}
    m_Modifications:
    - target: {fileID: 112410, guid: 0edd4641d57e402479349a244200c246, type: 3}
      propertyPath: m_Name
      value: SM_Wep_Staff_DoubleBlade_01
      objectReference: {fileID: 0}
    - target: {fileID: 112410, guid: 0edd4641d57e402479349a244200c246, type: 3}
      propertyPath: m_IsActive
      value: 1
      objectReference: {fileID: 0}
    - target: {fileID: 473172, guid: 0edd4641d57e402479349a244200c246, type: 3}
      propertyPath: m_LocalPosition.x
      value: 0.10799895
      objectReference: {fileID: 0}
    - target: {fileID: 473172, guid: 0edd4641d57e402479349a244200c246, type: 3}
      propertyPath: m_LocalPosition.y
      value: 0.06700006
      objectReference: {fileID: 0}
    - target: {fileID: 473172, guid: 0edd4641d57e402479349a244200c246, type: 3}
      propertyPath: m_LocalPosition.z
      value: 0.007999426
      objectReference: {fileID: 0}
    - target: {fileID: 473172, guid: 0edd4641d57e402479349a244200c246, type: 3}
      propertyPath: m_LocalRotation.x
      value: 0.8224427
      objectReference: {fileID: 0}
    - target: {fileID: 473172, guid: 0edd4641d57e402479349a244200c246, type: 3}
      propertyPath: m_LocalRotation.y
      value: 0.10604015
      objectReference: {fileID: 0}
    - target: {fileID: 473172, guid: 0edd4641d57e402479349a244200c246, type: 3}
      propertyPath: m_LocalRotation.z
      value: -0.07921057
      objectReference: {fileID: 0}
    - target: {fileID: 473172, guid: 0edd4641d57e402479349a244200c246, type: 3}
      propertyPath: m_LocalRotation.w
      value: -0.55323523
      objectReference: {fileID: 0}
    - target: {fileID: 473172, guid: 0edd4641d57e402479349a244200c246, type: 3}
      propertyPath: m_RootOrder
      value: 0
      objectReference: {fileID: 0}
    - target: {fileID: 473172, guid: 0edd4641d57e402479349a244200c246, type: 3}
      propertyPath: m_LocalEulerAnglesHint.x
      value: 296.721
      objectReference: {fileID: 0}
    - target: {fileID: 473172, guid: 0edd4641d57e402479349a244200c246, type: 3}
      propertyPath: m_LocalEulerAnglesHint.y
      value: -146.584
      objectReference: {fileID: 0}
    - target: {fileID: 473172, guid: 0edd4641d57e402479349a244200c246, type: 3}
      propertyPath: m_LocalEulerAnglesHint.z
      value: 144.35
      objectReference: {fileID: 0}
    m_RemovedComponents: []
  m_SourcePrefab: {fileID: 100100000, guid: 0edd4641d57e402479349a244200c246, type: 3}
--- !u!4 &3517394357432833685 stripped
Transform:
  m_CorrespondingSourceObject: {fileID: 473172, guid: 0edd4641d57e402479349a244200c246,
    type: 3}
  m_PrefabInstance: {fileID: 3517394357432381121}
  m_PrefabAsset: {fileID: 0}
