%YAML 1.1
%TAG !u! tag:unity3d.com,2011:
--- !u!1 &6639376059382259367
GameObject:
  m_ObjectHideFlags: 0
  m_CorrespondingSourceObject: {fileID: 0}
  m_PrefabInstance: {fileID: 0}
  m_PrefabAsset: {fileID: 0}
  serializedVersion: 6
  m_Component:
  - component: {fileID: 7364135719342216704}
  m_Layer: 0
  m_Name: wpn_nature_axe
  m_TagString: Untagged
  m_Icon: {fileID: 0}
  m_NavMeshLayer: 0
  m_StaticEditorFlags: 0
  m_IsActive: 1
--- !u!4 &7364135719342216704
Transform:
  m_ObjectHideFlags: 0
  m_CorrespondingSourceObject: {fileID: 0}
  m_PrefabInstance: {fileID: 0}
  m_PrefabAsset: {fileID: 0}
  m_GameObject: {fileID: 6639376059382259367}
  m_LocalRotation: {x: 0, y: 0, z: 0, w: 1}
  m_LocalPosition: {x: 0, y: 0, z: 0}
  m_LocalScale: {x: 1, y: 1, z: 1}
  m_Children:
  - {fileID: 7762535302359365432}
  m_Father: {fileID: 0}
  m_RootOrder: 0
  m_LocalEulerAnglesHint: {x: 0, y: 0, z: 0}
--- !u!1001 &7762535302359007500
PrefabInstance:
  m_ObjectHideFlags: 0
  serializedVersion: 2
  m_Modification:
    m_TransformParent: {fileID: 7364135719342216704}
    m_Modifications:
    - target: {fileID: 153132, guid: 984357422a249c34e96a5e3550b4420b, type: 3}
      propertyPath: m_Name
      value: SM_Wep_Axe_Nature_01
      objectReference: {fileID: 0}
    - target: {fileID: 153132, guid: 984357422a249c34e96a5e3550b4420b, type: 3}
      propertyPath: m_IsActive
      value: 1
      objectReference: {fileID: 0}
    - target: {fileID: 456244, guid: 984357422a249c34e96a5e3550b4420b, type: 3}
      propertyPath: m_LocalPosition.x
      value: 0.096
      objectReference: {fileID: 0}
    - target: {fileID: 456244, guid: 984357422a249c34e96a5e3550b4420b, type: 3}
      propertyPath: m_LocalPosition.y
      value: 0.119
      objectReference: {fileID: 0}
    - target: {fileID: 456244, guid: 984357422a249c34e96a5e3550b4420b, type: 3}
      propertyPath: m_LocalPosition.z
      value: 0.14
      objectReference: {fileID: 0}
    - target: {fileID: 456244, guid: 984357422a249c34e96a5e3550b4420b, type: 3}
      propertyPath: m_LocalRotation.x
      value: 0.68782127
      objectReference: {fileID: 0}
    - target: {fileID: 456244, guid: 984357422a249c34e96a5e3550b4420b, type: 3}
      propertyPath: m_LocalRotation.y
      value: -0.26704147
      objectReference: {fileID: 0}
    - target: {fileID: 456244, guid: 984357422a249c34e96a5e3550b4420b, type: 3}
      propertyPath: m_LocalRotation.z
      value: 0.457808
      objectReference: {fileID: 0}
    - target: {fileID: 456244, guid: 984357422a249c34e96a5e3550b4420b, type: 3}
      propertyPath: m_LocalRotation.w
      value: -0.49598664
      objectReference: {fileID: 0}
    - target: {fileID: 456244, guid: 984357422a249c34e96a5e3550b4420b, type: 3}
      propertyPath: m_RootOrder
      value: 0
      objectReference: {fileID: 0}
    - target: {fileID: 456244, guid: 984357422a249c34e96a5e3550b4420b, type: 3}
      propertyPath: m_LocalEulerAnglesHint.x
      value: 334.037
      objectReference: {fileID: 0}
    - target: {fileID: 456244, guid: 984357422a249c34e96a5e3550b4420b, type: 3}
      propertyPath: m_LocalEulerAnglesHint.y
      value: -264.331
      objectReference: {fileID: 0}
    - target: {fileID: 456244, guid: 984357422a249c34e96a5e3550b4420b, type: 3}
      propertyPath: m_LocalEulerAnglesHint.z
      value: 246.022
      objectReference: {fileID: 0}
    m_RemovedComponents: []
  m_SourcePrefab: {fileID: 100100000, guid: 984357422a249c34e96a5e3550b4420b, type: 3}
--- !u!4 &7762535302359365432 stripped
Transform:
  m_CorrespondingSourceObject: {fileID: 456244, guid: 984357422a249c34e96a5e3550b4420b,
    type: 3}
  m_PrefabInstance: {fileID: 7762535302359007500}
  m_PrefabAsset: {fileID: 0}
