%YAML 1.1
%TAG !u! tag:unity3d.com,2011:
--- !u!114 &11400000
MonoBehaviour:
  m_ObjectHideFlags: 0
  m_CorrespondingSourceObject: {fileID: 0}
  m_PrefabInstance: {fileID: 0}
  m_PrefabAsset: {fileID: 0}
  m_GameObject: {fileID: 0}
  m_Enabled: 1
  m_EditorHideFlags: 0
  m_Script: {fileID: 11500000, guid: 79f990bc9c8e2f04da0cec50d4cee533, type: 3}
  m_Name: spFrostManyTargetsProjectile
  m_EditorClassIdentifier: 
  type: 0
  lifeTime: 0.6
  refreshTime: 0
  flight:
    speed: 40
    maxSpeed: 5
    acceleration: 90
    accelerationDelay: 0
  rotation:
    delay: 0
    time: 0
    speed: {x: 0, y: 0, z: 0}
    acceleration: {x: 0, y: 0, z: 0}
  autoAim:
    delay: 0
    time: 0
    speed: 0
  random:
    autoAimDelay: 0
    accelerationDelay: 0
    flightSpread:
      min: 0
      max: 2
      randomSign: 1
    creationSpread:
      min: {x: 0, y: 0, z: 0}
      max: {x: 0, y: 0, z: 0}
      randomSign: 1
  collisionType: 4
  onCollisionEvent: 2
  colliderType: 2
  colliderMesh: {fileID: 0}
  colliderSize: {x: 1, y: 1, z: 1}
  colliderCenter: {x: 0, y: 0, z: 0}
  colliderRadius: 0.4
  colliderHeight: 1
  colliderDirection: 1
  prefabToCreate: {fileID: 0}
  mustBeUnique: 0
  objectID: d978cbff-4d5f-4696-bbcf-5cff0c90ca45
  particles:
  - prefab: {fileID: 1566782965043258, guid: 2a58234d913d5e54987590bf27cf5324, type: 3}
    eventName: 0
    destination: 0
    attach: 0
    destroy: 0
    scale: {x: 0.5, y: 0.5, z: 0.5}
    rotation: {x: 0, y: 0, z: 0}
    shift: {x: 0, y: 0, z: 0}
  - prefab: {fileID: 1531549957432454, guid: f538bc520146bdf4aa1718a34af4756f, type: 3}
    eventName: 0
    destination: 0
    attach: 1
    destroy: 1
    scale: {x: 1, y: 1, z: 1}
    rotation: {x: 0, y: 0, z: 0}
    shift: {x: 0, y: 0, z: 0}
  - prefab: {fileID: 1212891642701542, guid: 5dbe86494ac8cfd46bd61c777a7c8ea6, type: 3}
    eventName: 4
    destination: 0
    attach: 0
    destroy: 0
    scale: {x: 1, y: 1, z: 1}
    rotation: {x: 0, y: 0, z: 0}
    shift: {x: 0, y: 0, z: 0}
  - prefab: {fileID: 1212891642701542, guid: 5dbe86494ac8cfd46bd61c777a7c8ea6, type: 3}
    eventName: 1
    destination: 0
    attach: 0
    destroy: 0
    scale: {x: 0.5, y: 0.5, z: 0.5}
    rotation: {x: 0, y: 0, z: 0}
    shift: {x: 0, y: 0, z: 0}
  effects:
  - effect: {fileID: 11400000, guid: 067a5c0ba1fe3f2459325cdcea4d2ec0, type: 2}
    eventName: 2
    values:
      amount: 25
      duration: 0
      random: 0
  - effect: {fileID: 11400000, guid: b38e1ec1bb431124a8b9b5e53e5d5d6a, type: 2}
    eventName: 2
    values:
      amount: 0
      duration: 0
      random: 0
  sounds: []
