%YAML 1.1
%TAG !u! tag:unity3d.com,2011:
--- !u!1 &1561050948553421656
GameObject:
  m_ObjectHideFlags: 0
  m_CorrespondingSourceObject: {fileID: 0}
  m_PrefabInstance: {fileID: 0}
  m_PrefabAsset: {fileID: 0}
  serializedVersion: 6
  m_Component:
  - component: {fileID: 3056937664148707209}
  m_Layer: 0
  m_Name: wpn_greatsword_01
  m_TagString: Untagged
  m_Icon: {fileID: 0}
  m_NavMeshLayer: 0
  m_StaticEditorFlags: 0
  m_IsActive: 1
--- !u!4 &3056937664148707209
Transform:
  m_ObjectHideFlags: 0
  m_CorrespondingSourceObject: {fileID: 0}
  m_PrefabInstance: {fileID: 0}
  m_PrefabAsset: {fileID: 0}
  m_GameObject: {fileID: 1561050948553421656}
  m_LocalRotation: {x: 0, y: 0, z: 0, w: 1}
  m_LocalPosition: {x: 0, y: 0, z: 0}
  m_LocalScale: {x: 1, y: 1, z: 1}
  m_Children:
  - {fileID: 8133304340183863835}
  m_Father: {fileID: 0}
  m_RootOrder: 0
  m_LocalEulerAnglesHint: {x: 0, y: 0, z: 0}
--- !u!1001 &8133304340183649291
PrefabInstance:
  m_ObjectHideFlags: 0
  serializedVersion: 2
  m_Modification:
    m_TransformParent: {fileID: 3056937664148707209}
    m_Modifications:
    - target: {fileID: 138470, guid: 630627b9fd11d4340a42d44621ddcfa7, type: 3}
      propertyPath: m_Name
      value: SM_Wep_GreatSword_01
      objectReference: {fileID: 0}
    - target: {fileID: 138470, guid: 630627b9fd11d4340a42d44621ddcfa7, type: 3}
      propertyPath: m_IsActive
      value: 1
      objectReference: {fileID: 0}
    - target: {fileID: 482832, guid: 630627b9fd11d4340a42d44621ddcfa7, type: 3}
      propertyPath: m_LocalPosition.x
      value: 0.105
      objectReference: {fileID: 0}
    - target: {fileID: 482832, guid: 630627b9fd11d4340a42d44621ddcfa7, type: 3}
      propertyPath: m_LocalPosition.y
      value: 0.082
      objectReference: {fileID: 0}
    - target: {fileID: 482832, guid: 630627b9fd11d4340a42d44621ddcfa7, type: 3}
      propertyPath: m_LocalPosition.z
      value: 0.045
      objectReference: {fileID: 0}
    - target: {fileID: 482832, guid: 630627b9fd11d4340a42d44621ddcfa7, type: 3}
      propertyPath: m_LocalRotation.x
      value: 0.679842
      objectReference: {fileID: 0}
    - target: {fileID: 482832, guid: 630627b9fd11d4340a42d44621ddcfa7, type: 3}
      propertyPath: m_LocalRotation.y
      value: -0.27553636
      objectReference: {fileID: 0}
    - target: {fileID: 482832, guid: 630627b9fd11d4340a42d44621ddcfa7, type: 3}
      propertyPath: m_LocalRotation.z
      value: 0.46957535
      objectReference: {fileID: 0}
    - target: {fileID: 482832, guid: 630627b9fd11d4340a42d44621ddcfa7, type: 3}
      propertyPath: m_LocalRotation.w
      value: -0.49131817
      objectReference: {fileID: 0}
    - target: {fileID: 482832, guid: 630627b9fd11d4340a42d44621ddcfa7, type: 3}
      propertyPath: m_RootOrder
      value: 0
      objectReference: {fileID: 0}
    - target: {fileID: 482832, guid: 630627b9fd11d4340a42d44621ddcfa7, type: 3}
      propertyPath: m_LocalEulerAnglesHint.x
      value: 335.841
      objectReference: {fileID: 0}
    - target: {fileID: 482832, guid: 630627b9fd11d4340a42d44621ddcfa7, type: 3}
      propertyPath: m_LocalEulerAnglesHint.y
      value: -265.20898
      objectReference: {fileID: 0}
    - target: {fileID: 482832, guid: 630627b9fd11d4340a42d44621ddcfa7, type: 3}
      propertyPath: m_LocalEulerAnglesHint.z
      value: 246.394
      objectReference: {fileID: 0}
    m_RemovedComponents: []
  m_SourcePrefab: {fileID: 100100000, guid: 630627b9fd11d4340a42d44621ddcfa7, type: 3}
--- !u!4 &8133304340183863835 stripped
Transform:
  m_CorrespondingSourceObject: {fileID: 482832, guid: 630627b9fd11d4340a42d44621ddcfa7,
    type: 3}
  m_PrefabInstance: {fileID: 8133304340183649291}
  m_PrefabAsset: {fileID: 0}
