%YAML 1.1
%TAG !u! tag:unity3d.com,2011:
--- !u!114 &11400000
MonoBehaviour:
  m_ObjectHideFlags: 0
  m_CorrespondingSourceObject: {fileID: 0}
  m_PrefabInstance: {fileID: 0}
  m_PrefabAsset: {fileID: 0}
  m_GameObject: {fileID: 0}
  m_Enabled: 1
  m_EditorHideFlags: 0
  m_Script: {fileID: 11500000, guid: afb94b2b65b3c2243830d6b76fc7f4e8, type: 3}
  m_Name: csFireballChargable
  m_EditorClassIdentifier: 
  castIcon: {fileID: 21300000, guid: 6d02e25c9b3ff8545bf17563d6d4de7f, type: 3}
  castSound: {fileID: 8300000, guid: 1509b2dbaadf84659ad572a3f8c0c607, type: 3}
  element: 1
  createAt: 0
  offset: {x: 0, y: 1, z: 0.5}
  canBeInterrupted: 1
  chargeTime: 0.7
  canMoveWhileCharging: 1
  cooldownTime: 1
  spellLifeTimeModifier: 0
  spellParameters:
  - config: {fileID: 11400000, guid: af96f47383f72f24ca9ac34be4d453f7, type: 2}
    chargePlank: 0
    number: 3
    angle: 60
    addOffset: {x: 0, y: 0, z: 0}
  - config: {fileID: 11400000, guid: 2ae28d424c6fab74a805b16cecdff3d4, type: 2}
    chargePlank: 1
    number: 1
    angle: 0
    addOffset: {x: 0, y: 0, z: 0}
