%YAML 1.1
%TAG !u! tag:unity3d.com,2011:
--- !u!1 &1979065553976100414
GameObject:
  m_ObjectHideFlags: 0
  m_CorrespondingSourceObject: {fileID: 0}
  m_PrefabInstance: {fileID: 0}
  m_PrefabAsset: {fileID: 0}
  serializedVersion: 6
  m_Component:
  - component: {fileID: 2916094686671443245}
  m_Layer: 0
  m_Name: wpn_handle_wood
  m_TagString: Untagged
  m_Icon: {fileID: 0}
  m_NavMeshLayer: 0
  m_StaticEditorFlags: 0
  m_IsActive: 1
--- !u!4 &2916094686671443245
Transform:
  m_ObjectHideFlags: 0
  m_CorrespondingSourceObject: {fileID: 0}
  m_PrefabInstance: {fileID: 0}
  m_PrefabAsset: {fileID: 0}
  m_GameObject: {fileID: 1979065553976100414}
  m_LocalRotation: {x: 0, y: 0, z: 0, w: 1}
  m_LocalPosition: {x: 0, y: 0, z: 0}
  m_LocalScale: {x: 1, y: 1, z: 1}
  m_Children:
  - {fileID: 6612977630195661498}
  m_Father: {fileID: 0}
  m_RootOrder: 0
  m_LocalEulerAnglesHint: {x: 0, y: 0, z: 0}
--- !u!1001 &6612977630195819130
PrefabInstance:
  m_ObjectHideFlags: 0
  serializedVersion: 2
  m_Modification:
    m_TransformParent: {fileID: 2916094686671443245}
    m_Modifications:
    - target: {fileID: 137386, guid: ae09de03098be734ba0564ccdd73d447, type: 3}
      propertyPath: m_Name
      value: SM_Wep_Handle_Wood_01
      objectReference: {fileID: 0}
    - target: {fileID: 137386, guid: ae09de03098be734ba0564ccdd73d447, type: 3}
      propertyPath: m_IsActive
      value: 1
      objectReference: {fileID: 0}
    - target: {fileID: 497856, guid: ae09de03098be734ba0564ccdd73d447, type: 3}
      propertyPath: m_LocalPosition.x
      value: 0.108
      objectReference: {fileID: 0}
    - target: {fileID: 497856, guid: ae09de03098be734ba0564ccdd73d447, type: 3}
      propertyPath: m_LocalPosition.y
      value: 0.065
      objectReference: {fileID: 0}
    - target: {fileID: 497856, guid: ae09de03098be734ba0564ccdd73d447, type: 3}
      propertyPath: m_LocalPosition.z
      value: 0.004
      objectReference: {fileID: 0}
    - target: {fileID: 497856, guid: ae09de03098be734ba0564ccdd73d447, type: 3}
      propertyPath: m_LocalRotation.x
      value: 0.8224427
      objectReference: {fileID: 0}
    - target: {fileID: 497856, guid: ae09de03098be734ba0564ccdd73d447, type: 3}
      propertyPath: m_LocalRotation.y
      value: 0.10604015
      objectReference: {fileID: 0}
    - target: {fileID: 497856, guid: ae09de03098be734ba0564ccdd73d447, type: 3}
      propertyPath: m_LocalRotation.z
      value: -0.07921057
      objectReference: {fileID: 0}
    - target: {fileID: 497856, guid: ae09de03098be734ba0564ccdd73d447, type: 3}
      propertyPath: m_LocalRotation.w
      value: -0.55323523
      objectReference: {fileID: 0}
    - target: {fileID: 497856, guid: ae09de03098be734ba0564ccdd73d447, type: 3}
      propertyPath: m_RootOrder
      value: 0
      objectReference: {fileID: 0}
    - target: {fileID: 497856, guid: ae09de03098be734ba0564ccdd73d447, type: 3}
      propertyPath: m_LocalEulerAnglesHint.x
      value: 296.721
      objectReference: {fileID: 0}
    - target: {fileID: 497856, guid: ae09de03098be734ba0564ccdd73d447, type: 3}
      propertyPath: m_LocalEulerAnglesHint.y
      value: -146.584
      objectReference: {fileID: 0}
    - target: {fileID: 497856, guid: ae09de03098be734ba0564ccdd73d447, type: 3}
      propertyPath: m_LocalEulerAnglesHint.z
      value: 144.35
      objectReference: {fileID: 0}
    m_RemovedComponents: []
  m_SourcePrefab: {fileID: 100100000, guid: ae09de03098be734ba0564ccdd73d447, type: 3}
--- !u!4 &6612977630195661498 stripped
Transform:
  m_CorrespondingSourceObject: {fileID: 497856, guid: ae09de03098be734ba0564ccdd73d447,
    type: 3}
  m_PrefabInstance: {fileID: 6612977630195819130}
  m_PrefabAsset: {fileID: 0}
