%YAML 1.1
%TAG !u! tag:unity3d.com,2011:
--- !u!114 &11400000
MonoBehaviour:
  m_ObjectHideFlags: 0
  m_CorrespondingSourceObject: {fileID: 0}
  m_PrefabInstance: {fileID: 0}
  m_PrefabAsset: {fileID: 0}
  m_GameObject: {fileID: 0}
  m_Enabled: 1
  m_EditorHideFlags: 0
  m_Script: {fileID: 11500000, guid: afb94b2b65b3c2243830d6b76fc7f4e8, type: 3}
  m_Name: csFireSniperDot
  m_EditorClassIdentifier: 
  castIcon: {fileID: 0}
  castSound: {fileID: 0}
  element: 1
  createAt: 1
  canBeInterrupted: 0
  offset: {x: 0, y: 0, z: 0}
  chargeTime: 1
  canMoveWhileCharging: 1
  cooldownTime: 3
  spellParameters:
  - chargePlank: 0
    number: 1
    angle: 0
    config: {fileID: 11400000, guid: e44945204fa98604b945785574844af5, type: 2}
