%YAML 1.1
%TAG !u! tag:unity3d.com,2011:
--- !u!114 &11400000
MonoBehaviour:
  m_ObjectHideFlags: 0
  m_CorrespondingSourceObject: {fileID: 0}
  m_PrefabInstance: {fileID: 0}
  m_PrefabAsset: {fileID: 0}
  m_GameObject: {fileID: 0}
  m_Enabled: 1
  m_EditorHideFlags: 0
  m_Script: {fileID: 11500000, guid: c8e9570a6f2d0c24fa46f569a134ff13, type: 3}
  m_Name: seCasterMakeVisible
  m_EditorClassIdentifier: 
  targets: 0
  type: 6
  modifierType: 0
  transformEffectType: 0
  otherEffectType: 1
  condition: 
  cast: {fileID: 0}
  effectID: bda6069d-6ded-4522-bd28-43cef940cf3c
