%YAML 1.1
%TAG !u! tag:unity3d.com,2011:
--- !u!114 &11400000
MonoBehaviour:
  m_ObjectHideFlags: 0
  m_CorrespondingSourceObject: {fileID: 0}
  m_PrefabInstance: {fileID: 0}
  m_PrefabAsset: {fileID: 0}
  m_GameObject: {fileID: 0}
  m_Enabled: 1
  m_EditorHideFlags: 0
  m_Script: {fileID: 11500000, guid: c8e9570a6f2d0c24fa46f569a134ff13, type: 3}
  m_Name: seMagicSetCasterAsTarget
  m_EditorClassIdentifier: 
  type: 10
  targets: 2
  modifierType: 0
  transformEffectType: 0
  magicEffectType: 5
  newTarget: 0
  prefabToCreate: {fileID: 0}
  otherEffectType: 1
  animParameterType: 0
  animParameterName: 
  animParamValueBool: 0
  animParamValueInt: 0
  randomFromZeroToValue: 0
  animParamValueFloat: 0
  condition: 
  cast: {fileID: 0}
  saveCaster: 0
  sameSpellsOnTarget: 0
  dontCastIfSpellExists: 0
  sameSpellsOnOthers: 0
  castToCheck: {fileID: 0}
  castForExchange: {fileID: 0}
  checkOnTarget: 1
  checkOnOthers: 0
  createOnChargeMagics: 0
  chargesCount: 0
  effectID: 64f611b1-eb2b-434c-8308-5de65295c8df
