%YAML 1.1
%TAG !u! tag:unity3d.com,2011:
--- !u!114 &11400000
MonoBehaviour:
  m_ObjectHideFlags: 0
  m_CorrespondingSourceObject: {fileID: 0}
  m_PrefabInstance: {fileID: 0}
  m_PrefabAsset: {fileID: 0}
  m_GameObject: {fileID: 0}
  m_Enabled: 1
  m_EditorHideFlags: 0
  m_Script: {fileID: 11500000, guid: c8e9570a6f2d0c24fa46f569a134ff13, type: 3}
  m_Name: seMagicTurnByY
  m_EditorClassIdentifier: 
  type: 5
  targets: 4
  modifierType: 0
  transformEffectType: 3
  magicEffectType: 1
  prefabToCreate: {fileID: 0}
  otherEffectType: 1
  condition: 
  cast: {fileID: 0}
  sameSpellsOnTarget: 0
  dontCastIfSpellExists: 0
  sameSpellsOnOthers: 0
  castToCheck: {fileID: 0}
  castForExchange: {fileID: 0}
  chargesCount: 0
  effectID: 6ccf8965-579b-429c-8cf8-89c964e7e382
