%YAML 1.1
%TAG !u! tag:unity3d.com,2011:
--- !u!1001 &594954131430483655
PrefabInstance:
  m_ObjectHideFlags: 0
  serializedVersion: 2
  m_Modification:
    m_TransformParent: {fileID: 3479080531742975673}
    m_Modifications:
    - target: {fileID: 1032885490929044, guid: f575356c591a52e47a3f6efa6c18f316, type: 3}
      propertyPath: m_IsActive
      value: 1
      objectReference: {fileID: 0}
    - target: {fileID: 1552075872333300, guid: f575356c591a52e47a3f6efa6c18f316, type: 3}
      propertyPath: m_Name
      value: Character_Knight_03_Black
      objectReference: {fileID: 0}
    - target: {fileID: 4077150473209482, guid: f575356c591a52e47a3f6efa6c18f316, type: 3}
      propertyPath: m_LocalPosition.x
      value: 0
      objectReference: {fileID: 0}
    - target: {fileID: 4077150473209482, guid: f575356c591a52e47a3f6efa6c18f316, type: 3}
      propertyPath: m_LocalPosition.y
      value: 0
      objectReference: {fileID: 0}
    - target: {fileID: 4077150473209482, guid: f575356c591a52e47a3f6efa6c18f316, type: 3}
      propertyPath: m_LocalPosition.z
      value: 0
      objectReference: {fileID: 0}
    - target: {fileID: 4077150473209482, guid: f575356c591a52e47a3f6efa6c18f316, type: 3}
      propertyPath: m_LocalRotation.x
      value: 0
      objectReference: {fileID: 0}
    - target: {fileID: 4077150473209482, guid: f575356c591a52e47a3f6efa6c18f316, type: 3}
      propertyPath: m_LocalRotation.y
      value: 0
      objectReference: {fileID: 0}
    - target: {fileID: 4077150473209482, guid: f575356c591a52e47a3f6efa6c18f316, type: 3}
      propertyPath: m_LocalRotation.z
      value: 0
      objectReference: {fileID: 0}
    - target: {fileID: 4077150473209482, guid: f575356c591a52e47a3f6efa6c18f316, type: 3}
      propertyPath: m_LocalRotation.w
      value: 1
      objectReference: {fileID: 0}
    - target: {fileID: 4077150473209482, guid: f575356c591a52e47a3f6efa6c18f316, type: 3}
      propertyPath: m_RootOrder
      value: 0
      objectReference: {fileID: 0}
    - target: {fileID: 4077150473209482, guid: f575356c591a52e47a3f6efa6c18f316, type: 3}
      propertyPath: m_LocalEulerAnglesHint.x
      value: 0
      objectReference: {fileID: 0}
    - target: {fileID: 4077150473209482, guid: f575356c591a52e47a3f6efa6c18f316, type: 3}
      propertyPath: m_LocalEulerAnglesHint.y
      value: 0
      objectReference: {fileID: 0}
    - target: {fileID: 4077150473209482, guid: f575356c591a52e47a3f6efa6c18f316, type: 3}
      propertyPath: m_LocalEulerAnglesHint.z
      value: 0
      objectReference: {fileID: 0}
    - target: {fileID: 95585420113921882, guid: f575356c591a52e47a3f6efa6c18f316,
        type: 3}
      propertyPath: m_Enabled
      value: 0
      objectReference: {fileID: 0}
    m_RemovedComponents: []
  m_SourcePrefab: {fileID: 100100000, guid: f575356c591a52e47a3f6efa6c18f316, type: 3}
--- !u!1001 &2745464478283860629
PrefabInstance:
  m_ObjectHideFlags: 0
  serializedVersion: 2
  m_Modification:
    m_TransformParent: {fileID: 0}
    m_Modifications:
    - target: {fileID: 1201025327, guid: 3b6294c805812f447bdd9ea200bbf07d, type: 3}
      propertyPath: m_IsKinematic
      value: 1
      objectReference: {fileID: 0}
    - target: {fileID: 1608335003644881937, guid: 3b6294c805812f447bdd9ea200bbf07d,
        type: 3}
      propertyPath: m_Name
      value: npc_knight_03_black
      objectReference: {fileID: 0}
    - target: {fileID: 1608335003644881938, guid: 3b6294c805812f447bdd9ea200bbf07d,
        type: 3}
      propertyPath: team
      value: 0
      objectReference: {fileID: 0}
    - target: {fileID: 1608335003644881939, guid: 3b6294c805812f447bdd9ea200bbf07d,
        type: 3}
      propertyPath: invulnerable
      value: 0
      objectReference: {fileID: 0}
    - target: {fileID: 1608335003644881961, guid: 3b6294c805812f447bdd9ea200bbf07d,
        type: 3}
      propertyPath: m_Avatar
      value: 
      objectReference: {fileID: 9000000, guid: 32562d1256a1b3b4ca9be3d6ce7adf64, type: 3}
    - target: {fileID: 1608335003644881961, guid: 3b6294c805812f447bdd9ea200bbf07d,
        type: 3}
      propertyPath: m_WarningMessage
      value: 
      objectReference: {fileID: 0}
    - target: {fileID: 1608335003644881964, guid: 3b6294c805812f447bdd9ea200bbf07d,
        type: 3}
      propertyPath: m_LocalPosition.x
      value: 35.494347
      objectReference: {fileID: 0}
    - target: {fileID: 1608335003644881964, guid: 3b6294c805812f447bdd9ea200bbf07d,
        type: 3}
      propertyPath: m_LocalPosition.y
      value: 0.7222445
      objectReference: {fileID: 0}
    - target: {fileID: 1608335003644881964, guid: 3b6294c805812f447bdd9ea200bbf07d,
        type: 3}
      propertyPath: m_LocalPosition.z
      value: 8.50278
      objectReference: {fileID: 0}
    - target: {fileID: 1608335003644881964, guid: 3b6294c805812f447bdd9ea200bbf07d,
        type: 3}
      propertyPath: m_LocalRotation.x
      value: 0
      objectReference: {fileID: 0}
    - target: {fileID: 1608335003644881964, guid: 3b6294c805812f447bdd9ea200bbf07d,
        type: 3}
      propertyPath: m_LocalRotation.y
      value: 0
      objectReference: {fileID: 0}
    - target: {fileID: 1608335003644881964, guid: 3b6294c805812f447bdd9ea200bbf07d,
        type: 3}
      propertyPath: m_LocalRotation.z
      value: 0
      objectReference: {fileID: 0}
    - target: {fileID: 1608335003644881964, guid: 3b6294c805812f447bdd9ea200bbf07d,
        type: 3}
      propertyPath: m_LocalRotation.w
      value: 1
      objectReference: {fileID: 0}
    - target: {fileID: 1608335003644881964, guid: 3b6294c805812f447bdd9ea200bbf07d,
        type: 3}
      propertyPath: m_RootOrder
      value: 0
      objectReference: {fileID: 0}
    - target: {fileID: 1608335003644881964, guid: 3b6294c805812f447bdd9ea200bbf07d,
        type: 3}
      propertyPath: m_LocalEulerAnglesHint.x
      value: 0
      objectReference: {fileID: 0}
    - target: {fileID: 1608335003644881964, guid: 3b6294c805812f447bdd9ea200bbf07d,
        type: 3}
      propertyPath: m_LocalEulerAnglesHint.y
      value: 0
      objectReference: {fileID: 0}
    - target: {fileID: 1608335003644881964, guid: 3b6294c805812f447bdd9ea200bbf07d,
        type: 3}
      propertyPath: m_LocalEulerAnglesHint.z
      value: 0
      objectReference: {fileID: 0}
    - target: {fileID: 1608335003644881965, guid: 3b6294c805812f447bdd9ea200bbf07d,
        type: 3}
      propertyPath: aggroRadius
      value: 10
      objectReference: {fileID: 0}
    - target: {fileID: 4592334920848915445, guid: 3b6294c805812f447bdd9ea200bbf07d,
        type: 3}
      propertyPath: leftHandWeapon
      value: 
      objectReference: {fileID: 0}
    - target: {fileID: 4592334920848915445, guid: 3b6294c805812f447bdd9ea200bbf07d,
        type: 3}
      propertyPath: rightHandWeapon
      value: 
      objectReference: {fileID: 11400000, guid: c72bf31b6b610db43ac140f9b113a3d5,
        type: 2}
    - target: {fileID: 8576404531813962197, guid: 3b6294c805812f447bdd9ea200bbf07d,
        type: 3}
      propertyPath: m_RootOrder
      value: 1
      objectReference: {fileID: 0}
    m_RemovedComponents: []
  m_SourcePrefab: {fileID: 100100000, guid: 3b6294c805812f447bdd9ea200bbf07d, type: 3}
--- !u!4 &3479080531742975673 stripped
Transform:
  m_CorrespondingSourceObject: {fileID: 1608335003644881964, guid: 3b6294c805812f447bdd9ea200bbf07d,
    type: 3}
  m_PrefabInstance: {fileID: 2745464478283860629}
  m_PrefabAsset: {fileID: 0}
