%YAML 1.1
%TAG !u! tag:unity3d.com,2011:
--- !u!1001 &1346213113299445266
PrefabInstance:
  m_ObjectHideFlags: 0
  serializedVersion: 2
  m_Modification:
    m_TransformParent: {fileID: 0}
    m_Modifications:
    - target: {fileID: 1201025327, guid: 3b6294c805812f447bdd9ea200bbf07d, type: 3}
      propertyPath: m_IsKinematic
      value: 1
      objectReference: {fileID: 0}
    - target: {fileID: 1608335003644881937, guid: 3b6294c805812f447bdd9ea200bbf07d,
        type: 3}
      propertyPath: m_Name
      value: npc_soldier_02_yellow
      objectReference: {fileID: 0}
    - target: {fileID: 1608335003644881938, guid: 3b6294c805812f447bdd9ea200bbf07d,
        type: 3}
      propertyPath: team
      value: 0
      objectReference: {fileID: 0}
    - target: {fileID: 1608335003644881939, guid: 3b6294c805812f447bdd9ea200bbf07d,
        type: 3}
      propertyPath: invulnerable
      value: 0
      objectReference: {fileID: 0}
    - target: {fileID: 1608335003644881961, guid: 3b6294c805812f447bdd9ea200bbf07d,
        type: 3}
      propertyPath: m_Avatar
      value: 
      objectReference: {fileID: 9000000, guid: 32562d1256a1b3b4ca9be3d6ce7adf64, type: 3}
    - target: {fileID: 1608335003644881961, guid: 3b6294c805812f447bdd9ea200bbf07d,
        type: 3}
      propertyPath: m_Controller
      value: 
      objectReference: {fileID: 9100000, guid: f2aed515af5c33b42bad16f3c92978b8, type: 2}
    - target: {fileID: 1608335003644881961, guid: 3b6294c805812f447bdd9ea200bbf07d,
        type: 3}
      propertyPath: m_WarningMessage
      value: 
      objectReference: {fileID: 0}
    - target: {fileID: 1608335003644881964, guid: 3b6294c805812f447bdd9ea200bbf07d,
        type: 3}
      propertyPath: m_LocalPosition.x
      value: 35.494347
      objectReference: {fileID: 0}
    - target: {fileID: 1608335003644881964, guid: 3b6294c805812f447bdd9ea200bbf07d,
        type: 3}
      propertyPath: m_LocalPosition.y
      value: 0.7222445
      objectReference: {fileID: 0}
    - target: {fileID: 1608335003644881964, guid: 3b6294c805812f447bdd9ea200bbf07d,
        type: 3}
      propertyPath: m_LocalPosition.z
      value: 8.50278
      objectReference: {fileID: 0}
    - target: {fileID: 1608335003644881964, guid: 3b6294c805812f447bdd9ea200bbf07d,
        type: 3}
      propertyPath: m_LocalRotation.x
      value: 0
      objectReference: {fileID: 0}
    - target: {fileID: 1608335003644881964, guid: 3b6294c805812f447bdd9ea200bbf07d,
        type: 3}
      propertyPath: m_LocalRotation.y
      value: 0
      objectReference: {fileID: 0}
    - target: {fileID: 1608335003644881964, guid: 3b6294c805812f447bdd9ea200bbf07d,
        type: 3}
      propertyPath: m_LocalRotation.z
      value: 0
      objectReference: {fileID: 0}
    - target: {fileID: 1608335003644881964, guid: 3b6294c805812f447bdd9ea200bbf07d,
        type: 3}
      propertyPath: m_LocalRotation.w
      value: 1
      objectReference: {fileID: 0}
    - target: {fileID: 1608335003644881964, guid: 3b6294c805812f447bdd9ea200bbf07d,
        type: 3}
      propertyPath: m_RootOrder
      value: 0
      objectReference: {fileID: 0}
    - target: {fileID: 1608335003644881964, guid: 3b6294c805812f447bdd9ea200bbf07d,
        type: 3}
      propertyPath: m_LocalEulerAnglesHint.x
      value: 0
      objectReference: {fileID: 0}
    - target: {fileID: 1608335003644881964, guid: 3b6294c805812f447bdd9ea200bbf07d,
        type: 3}
      propertyPath: m_LocalEulerAnglesHint.y
      value: 0
      objectReference: {fileID: 0}
    - target: {fileID: 1608335003644881964, guid: 3b6294c805812f447bdd9ea200bbf07d,
        type: 3}
      propertyPath: m_LocalEulerAnglesHint.z
      value: 0
      objectReference: {fileID: 0}
    - target: {fileID: 1608335003644881965, guid: 3b6294c805812f447bdd9ea200bbf07d,
        type: 3}
      propertyPath: aggroRadius
      value: 10
      objectReference: {fileID: 0}
    - target: {fileID: 1612090271015522180, guid: 3b6294c805812f447bdd9ea200bbf07d,
        type: 3}
      propertyPath: m_LocalScale.x
      value: 0.01
      objectReference: {fileID: 0}
    - target: {fileID: 1612090271015522180, guid: 3b6294c805812f447bdd9ea200bbf07d,
        type: 3}
      propertyPath: m_LocalScale.y
      value: 0.01
      objectReference: {fileID: 0}
    - target: {fileID: 1612090271015522180, guid: 3b6294c805812f447bdd9ea200bbf07d,
        type: 3}
      propertyPath: m_LocalScale.z
      value: 0.01
      objectReference: {fileID: 0}
    - target: {fileID: 4592334920848915445, guid: 3b6294c805812f447bdd9ea200bbf07d,
        type: 3}
      propertyPath: rightHandWeapon
      value: 
      objectReference: {fileID: 11400000, guid: 99057f5e3025ab146b013c56cfb8564f,
        type: 2}
    - target: {fileID: 4592334920848915445, guid: 3b6294c805812f447bdd9ea200bbf07d,
        type: 3}
      propertyPath: leftHandWeapon
      value: 
      objectReference: {fileID: 11400000, guid: ad8458f85ca7d2f47889c02b4f723a75,
        type: 2}
    - target: {fileID: 8576404531813962197, guid: 3b6294c805812f447bdd9ea200bbf07d,
        type: 3}
      propertyPath: m_RootOrder
      value: 1
      objectReference: {fileID: 0}
    m_RemovedComponents: []
  m_SourcePrefab: {fileID: 100100000, guid: 3b6294c805812f447bdd9ea200bbf07d, type: 3}
--- !u!4 &360078632246037054 stripped
Transform:
  m_CorrespondingSourceObject: {fileID: 1608335003644881964, guid: 3b6294c805812f447bdd9ea200bbf07d,
    type: 3}
  m_PrefabInstance: {fileID: 1346213113299445266}
  m_PrefabAsset: {fileID: 0}
--- !u!1001 &1786151992860280088
PrefabInstance:
  m_ObjectHideFlags: 0
  serializedVersion: 2
  m_Modification:
    m_TransformParent: {fileID: 360078632246037054}
    m_Modifications:
    - target: {fileID: 1104581944767486, guid: b3ec5bb107e4ee045acc3e270dfda7bf, type: 3}
      propertyPath: m_IsActive
      value: 1
      objectReference: {fileID: 0}
    - target: {fileID: 1655612677797654, guid: b3ec5bb107e4ee045acc3e270dfda7bf, type: 3}
      propertyPath: m_Name
      value: Character_Soldier_02_Yellow
      objectReference: {fileID: 0}
    - target: {fileID: 4136495266917064, guid: b3ec5bb107e4ee045acc3e270dfda7bf, type: 3}
      propertyPath: m_LocalPosition.x
      value: 0
      objectReference: {fileID: 0}
    - target: {fileID: 4136495266917064, guid: b3ec5bb107e4ee045acc3e270dfda7bf, type: 3}
      propertyPath: m_LocalPosition.y
      value: 0
      objectReference: {fileID: 0}
    - target: {fileID: 4136495266917064, guid: b3ec5bb107e4ee045acc3e270dfda7bf, type: 3}
      propertyPath: m_LocalPosition.z
      value: 0
      objectReference: {fileID: 0}
    - target: {fileID: 4136495266917064, guid: b3ec5bb107e4ee045acc3e270dfda7bf, type: 3}
      propertyPath: m_LocalRotation.x
      value: 0
      objectReference: {fileID: 0}
    - target: {fileID: 4136495266917064, guid: b3ec5bb107e4ee045acc3e270dfda7bf, type: 3}
      propertyPath: m_LocalRotation.y
      value: 0
      objectReference: {fileID: 0}
    - target: {fileID: 4136495266917064, guid: b3ec5bb107e4ee045acc3e270dfda7bf, type: 3}
      propertyPath: m_LocalRotation.z
      value: 0
      objectReference: {fileID: 0}
    - target: {fileID: 4136495266917064, guid: b3ec5bb107e4ee045acc3e270dfda7bf, type: 3}
      propertyPath: m_LocalRotation.w
      value: 1
      objectReference: {fileID: 0}
    - target: {fileID: 4136495266917064, guid: b3ec5bb107e4ee045acc3e270dfda7bf, type: 3}
      propertyPath: m_RootOrder
      value: 0
      objectReference: {fileID: 0}
    - target: {fileID: 4136495266917064, guid: b3ec5bb107e4ee045acc3e270dfda7bf, type: 3}
      propertyPath: m_LocalEulerAnglesHint.x
      value: 0
      objectReference: {fileID: 0}
    - target: {fileID: 4136495266917064, guid: b3ec5bb107e4ee045acc3e270dfda7bf, type: 3}
      propertyPath: m_LocalEulerAnglesHint.y
      value: 0
      objectReference: {fileID: 0}
    - target: {fileID: 4136495266917064, guid: b3ec5bb107e4ee045acc3e270dfda7bf, type: 3}
      propertyPath: m_LocalEulerAnglesHint.z
      value: 0
      objectReference: {fileID: 0}
    - target: {fileID: 95648207722046816, guid: b3ec5bb107e4ee045acc3e270dfda7bf,
        type: 3}
      propertyPath: m_Enabled
      value: 0
      objectReference: {fileID: 0}
    m_RemovedComponents: []
  m_SourcePrefab: {fileID: 100100000, guid: b3ec5bb107e4ee045acc3e270dfda7bf, type: 3}
--- !u!4 &1785479548518436274 stripped
Transform:
  m_CorrespondingSourceObject: {fileID: 4191298233927850, guid: b3ec5bb107e4ee045acc3e270dfda7bf,
    type: 3}
  m_PrefabInstance: {fileID: 1786151992860280088}
  m_PrefabAsset: {fileID: 0}
--- !u!1001 &2146987519713572303
PrefabInstance:
  m_ObjectHideFlags: 0
  serializedVersion: 2
  m_Modification:
    m_TransformParent: {fileID: 1785479548518436274}
    m_Modifications:
    - target: {fileID: 1683190119414518, guid: 3e41db6c30f053148b1d06468f6cc9e5, type: 3}
      propertyPath: m_Name
      value: bow_quiver
      objectReference: {fileID: 0}
    - target: {fileID: 4429554649888062, guid: 3e41db6c30f053148b1d06468f6cc9e5, type: 3}
      propertyPath: m_LocalPosition.x
      value: 0.26599884
      objectReference: {fileID: 0}
    - target: {fileID: 4429554649888062, guid: 3e41db6c30f053148b1d06468f6cc9e5, type: 3}
      propertyPath: m_LocalPosition.y
      value: 0.9728373
      objectReference: {fileID: 0}
    - target: {fileID: 4429554649888062, guid: 3e41db6c30f053148b1d06468f6cc9e5, type: 3}
      propertyPath: m_LocalPosition.z
      value: 0.0835104
      objectReference: {fileID: 0}
    - target: {fileID: 4429554649888062, guid: 3e41db6c30f053148b1d06468f6cc9e5, type: 3}
      propertyPath: m_LocalRotation.x
      value: -0.24995667
      objectReference: {fileID: 0}
    - target: {fileID: 4429554649888062, guid: 3e41db6c30f053148b1d06468f6cc9e5, type: 3}
      propertyPath: m_LocalRotation.y
      value: -0.20055354
      objectReference: {fileID: 0}
    - target: {fileID: 4429554649888062, guid: 3e41db6c30f053148b1d06468f6cc9e5, type: 3}
      propertyPath: m_LocalRotation.z
      value: -0.6780695
      objectReference: {fileID: 0}
    - target: {fileID: 4429554649888062, guid: 3e41db6c30f053148b1d06468f6cc9e5, type: 3}
      propertyPath: m_LocalRotation.w
      value: 0.66145426
      objectReference: {fileID: 0}
    - target: {fileID: 4429554649888062, guid: 3e41db6c30f053148b1d06468f6cc9e5, type: 3}
      propertyPath: m_RootOrder
      value: 1
      objectReference: {fileID: 0}
    - target: {fileID: 4429554649888062, guid: 3e41db6c30f053148b1d06468f6cc9e5, type: 3}
      propertyPath: m_LocalEulerAnglesHint.x
      value: -61.131004
      objectReference: {fileID: 0}
    - target: {fileID: 4429554649888062, guid: 3e41db6c30f053148b1d06468f6cc9e5, type: 3}
      propertyPath: m_LocalEulerAnglesHint.y
      value: -98.776
      objectReference: {fileID: 0}
    - target: {fileID: 4429554649888062, guid: 3e41db6c30f053148b1d06468f6cc9e5, type: 3}
      propertyPath: m_LocalEulerAnglesHint.z
      value: 97.699005
      objectReference: {fileID: 0}
    - target: {fileID: 4429554649888062, guid: 3e41db6c30f053148b1d06468f6cc9e5, type: 3}
      propertyPath: m_LocalScale.x
      value: 2
      objectReference: {fileID: 0}
    - target: {fileID: 4429554649888062, guid: 3e41db6c30f053148b1d06468f6cc9e5, type: 3}
      propertyPath: m_LocalScale.y
      value: 2
      objectReference: {fileID: 0}
    - target: {fileID: 4429554649888062, guid: 3e41db6c30f053148b1d06468f6cc9e5, type: 3}
      propertyPath: m_LocalScale.z
      value: 2
      objectReference: {fileID: 0}
    m_RemovedComponents: []
  m_SourcePrefab: {fileID: 100100000, guid: 3e41db6c30f053148b1d06468f6cc9e5, type: 3}
