%YAML 1.1
%TAG !u! tag:unity3d.com,2011:
--- !u!114 &11400000
MonoBehaviour:
  m_ObjectHideFlags: 0
  m_CorrespondingSourceObject: {fileID: 0}
  m_PrefabInstance: {fileID: 0}
  m_PrefabAsset: {fileID: 0}
  m_GameObject: {fileID: 0}
  m_Enabled: 1
  m_EditorHideFlags: 0
  m_Script: {fileID: 11500000, guid: afb94b2b65b3c2243830d6b76fc7f4e8, type: 3}
  m_Name: csFrostCircle
  m_EditorClassIdentifier: 
  castIcon: {fileID: 0}
  castSound: {fileID: 8300000, guid: 8a4fae09e411d40379d0bde9567d0d9c, type: 3}
  element: 2
  createAt: 1
  offset: {x: 0, y: 0, z: 0}
  canBeInterrupted: 0
  chargeTime: 2
  canMoveWhileCharging: 0
  cooldownTime: 12
  spellLifeTimeModifier: 0
  spellParameters:
  - config: {fileID: 11400000, guid: 7741a5b4f9b788d40af1382ef9af1262, type: 2}
    chargePlank: 0
    number: 1
    angle: 0
    addOffset: {x: 0, y: 0, z: 0}
