%YAML 1.1
%TAG !u! tag:unity3d.com,2011:
--- !u!1001 &9118309541938653757
PrefabInstance:
  m_ObjectHideFlags: 0
  serializedVersion: 2
  m_Modification:
    m_TransformParent: {fileID: 0}
    m_Modifications:
    - target: {fileID: 375135196180023402, guid: 96fe5770c8050f543b827ba28bf2d2c4,
        type: 3}
      propertyPath: m_Name
      value: MagicShield2
      objectReference: {fileID: 0}
    - target: {fileID: 5625109104102689351, guid: 96fe5770c8050f543b827ba28bf2d2c4,
        type: 3}
      propertyPath: m_LocalPosition.x
      value: 40.499283
      objectReference: {fileID: 0}
    - target: {fileID: 5625109104102689351, guid: 96fe5770c8050f543b827ba28bf2d2c4,
        type: 3}
      propertyPath: m_LocalPosition.y
      value: 0.0061044693
      objectReference: {fileID: 0}
    - target: {fileID: 5625109104102689351, guid: 96fe5770c8050f543b827ba28bf2d2c4,
        type: 3}
      propertyPath: m_LocalPosition.z
      value: 41.47555
      objectReference: {fileID: 0}
    - target: {fileID: 5625109104102689351, guid: 96fe5770c8050f543b827ba28bf2d2c4,
        type: 3}
      propertyPath: m_LocalRotation.x
      value: 0
      objectReference: {fileID: 0}
    - target: {fileID: 5625109104102689351, guid: 96fe5770c8050f543b827ba28bf2d2c4,
        type: 3}
      propertyPath: m_LocalRotation.y
      value: 0
      objectReference: {fileID: 0}
    - target: {fileID: 5625109104102689351, guid: 96fe5770c8050f543b827ba28bf2d2c4,
        type: 3}
      propertyPath: m_LocalRotation.z
      value: 0
      objectReference: {fileID: 0}
    - target: {fileID: 5625109104102689351, guid: 96fe5770c8050f543b827ba28bf2d2c4,
        type: 3}
      propertyPath: m_LocalRotation.w
      value: 1
      objectReference: {fileID: 0}
    - target: {fileID: 5625109104102689351, guid: 96fe5770c8050f543b827ba28bf2d2c4,
        type: 3}
      propertyPath: m_RootOrder
      value: 0
      objectReference: {fileID: 0}
    - target: {fileID: 5625109104102689351, guid: 96fe5770c8050f543b827ba28bf2d2c4,
        type: 3}
      propertyPath: m_LocalEulerAnglesHint.x
      value: 0
      objectReference: {fileID: 0}
    - target: {fileID: 5625109104102689351, guid: 96fe5770c8050f543b827ba28bf2d2c4,
        type: 3}
      propertyPath: m_LocalEulerAnglesHint.y
      value: 0
      objectReference: {fileID: 0}
    - target: {fileID: 5625109104102689351, guid: 96fe5770c8050f543b827ba28bf2d2c4,
        type: 3}
      propertyPath: m_LocalEulerAnglesHint.z
      value: 0
      objectReference: {fileID: 0}
    - target: {fileID: 6383178891952324640, guid: 96fe5770c8050f543b827ba28bf2d2c4,
        type: 3}
      propertyPath: reflect
      value: 1
      objectReference: {fileID: 0}
    m_RemovedComponents: []
  m_SourcePrefab: {fileID: 100100000, guid: 96fe5770c8050f543b827ba28bf2d2c4, type: 3}
