%YAML 1.1
%TAG !u! tag:unity3d.com,2011:
--- !u!1001 &2329597750901211213
PrefabInstance:
  m_ObjectHideFlags: 0
  serializedVersion: 2
  m_Modification:
    m_TransformParent: {fileID: 0}
    m_Modifications:
    - target: {fileID: 375135196180023402, guid: 96fe5770c8050f543b827ba28bf2d2c4,
        type: 3}
      propertyPath: m_Name
      value: MagicShield4
      objectReference: {fileID: 0}
    - target: {fileID: 2002964851167775720, guid: 96fe5770c8050f543b827ba28bf2d2c4,
        type: 3}
      propertyPath: reflect
      value: 1
      objectReference: {fileID: 0}
    - target: {fileID: 2002964851167775720, guid: 96fe5770c8050f543b827ba28bf2d2c4,
        type: 3}
      propertyPath: preciseReflectChance
      value: 0.5
      objectReference: {fileID: 0}
    - target: {fileID: 4354080749438197257, guid: 96fe5770c8050f543b827ba28bf2d2c4,
        type: 3}
      propertyPath: reflect
      value: 1
      objectReference: {fileID: 0}
    - target: {fileID: 4354080749438197257, guid: 96fe5770c8050f543b827ba28bf2d2c4,
        type: 3}
      propertyPath: preciseReflectChance
      value: 0.5
      objectReference: {fileID: 0}
    - target: {fileID: 4404183141110226582, guid: 96fe5770c8050f543b827ba28bf2d2c4,
        type: 3}
      propertyPath: m_IsActive
      value: 1
      objectReference: {fileID: 0}
    - target: {fileID: 5472067876468200867, guid: 96fe5770c8050f543b827ba28bf2d2c4,
        type: 3}
      propertyPath: m_IsActive
      value: 1
      objectReference: {fileID: 0}
    - target: {fileID: 5625109104102689351, guid: 96fe5770c8050f543b827ba28bf2d2c4,
        type: 3}
      propertyPath: m_LocalPosition.x
      value: 0
      objectReference: {fileID: 0}
    - target: {fileID: 5625109104102689351, guid: 96fe5770c8050f543b827ba28bf2d2c4,
        type: 3}
      propertyPath: m_LocalPosition.y
      value: 0
      objectReference: {fileID: 0}
    - target: {fileID: 5625109104102689351, guid: 96fe5770c8050f543b827ba28bf2d2c4,
        type: 3}
      propertyPath: m_LocalPosition.z
      value: 0
      objectReference: {fileID: 0}
    - target: {fileID: 5625109104102689351, guid: 96fe5770c8050f543b827ba28bf2d2c4,
        type: 3}
      propertyPath: m_LocalRotation.x
      value: 0
      objectReference: {fileID: 0}
    - target: {fileID: 5625109104102689351, guid: 96fe5770c8050f543b827ba28bf2d2c4,
        type: 3}
      propertyPath: m_LocalRotation.y
      value: 0
      objectReference: {fileID: 0}
    - target: {fileID: 5625109104102689351, guid: 96fe5770c8050f543b827ba28bf2d2c4,
        type: 3}
      propertyPath: m_LocalRotation.z
      value: 0
      objectReference: {fileID: 0}
    - target: {fileID: 5625109104102689351, guid: 96fe5770c8050f543b827ba28bf2d2c4,
        type: 3}
      propertyPath: m_LocalRotation.w
      value: 1
      objectReference: {fileID: 0}
    - target: {fileID: 5625109104102689351, guid: 96fe5770c8050f543b827ba28bf2d2c4,
        type: 3}
      propertyPath: m_RootOrder
      value: 0
      objectReference: {fileID: 0}
    - target: {fileID: 5625109104102689351, guid: 96fe5770c8050f543b827ba28bf2d2c4,
        type: 3}
      propertyPath: m_LocalEulerAnglesHint.x
      value: 0
      objectReference: {fileID: 0}
    - target: {fileID: 5625109104102689351, guid: 96fe5770c8050f543b827ba28bf2d2c4,
        type: 3}
      propertyPath: m_LocalEulerAnglesHint.y
      value: 0
      objectReference: {fileID: 0}
    - target: {fileID: 5625109104102689351, guid: 96fe5770c8050f543b827ba28bf2d2c4,
        type: 3}
      propertyPath: m_LocalEulerAnglesHint.z
      value: 0
      objectReference: {fileID: 0}
    - target: {fileID: 6383178891952324640, guid: 96fe5770c8050f543b827ba28bf2d2c4,
        type: 3}
      propertyPath: reflect
      value: 1
      objectReference: {fileID: 0}
    - target: {fileID: 6383178891952324640, guid: 96fe5770c8050f543b827ba28bf2d2c4,
        type: 3}
      propertyPath: preciseReflectChance
      value: 0.5
      objectReference: {fileID: 0}
    m_RemovedComponents: []
  m_SourcePrefab: {fileID: 100100000, guid: 96fe5770c8050f543b827ba28bf2d2c4, type: 3}
