%YAML 1.1
%TAG !u! tag:unity3d.com,2011:
--- !u!114 &11400000
MonoBehaviour:
  m_ObjectHideFlags: 0
  m_CorrespondingSourceObject: {fileID: 0}
  m_PrefabInstance: {fileID: 0}
  m_PrefabAsset: {fileID: 0}
  m_GameObject: {fileID: 0}
  m_Enabled: 1
  m_EditorHideFlags: 0
  m_Script: {fileID: 11500000, guid: 79f990bc9c8e2f04da0cec50d4cee533, type: 3}
  m_Name: spMagicShield4
  m_EditorClassIdentifier: 
  type: 2
  lifeTime: 1
  refreshTime: 0
  flight:
    speed: 10
    maxSpeed: 10
    acceleration: 0
    accelerationDelay: 0
  rotation:
    delay: 0
    time: 0
    speed: {x: 0, y: 0, z: 0}
    acceleration: {x: 0, y: 0, z: 0}
  autoAim:
    delay: 0
    time: 0
    speed: 0
  random:
    autoAimDelay: 0
    accelerationDelay: 0
    flightSpread:
      min: 0
      max: 0
      randomSign: 1
    creationSpread:
      min: {x: 0, y: 0, z: 0}
      max: {x: 0, y: 0, z: 0}
      randomSign: 1
  collisionType: 4
  onCollisionEvent: 1
  colliderType: 0
  colliderMesh: {fileID: 0}
  colliderSize: {x: 1, y: 1, z: 1}
  colliderCenter: {x: 0, y: 0, z: 0}
  colliderRadius: 0.5
  colliderHeight: 1
  colliderDirection: 1
  whoIsParent: 0
  prefabToCreate: {fileID: 2693394155707205671, guid: 6597d10b762779e41a363ea526b44fbb,
    type: 3}
  mustBeUnique: 1
  objectID: 59e69bc3-ebdf-443b-95b0-d8e777cb5da2
  particles:
  - prefab: {fileID: 1921541771461104, guid: 313bf86776f6cc740ab0c205116623a7, type: 3}
    eventName: 0
    destination: 0
    attach: 1
    destroy: 1
    scale: {x: 1, y: 1, z: 1}
    rotation: {x: 0, y: 0, z: 0}
    shift: {x: 0, y: 0, z: 0}
  - prefab: {fileID: 1921541771461104, guid: 313bf86776f6cc740ab0c205116623a7, type: 3}
    eventName: 1
    destination: 0
    attach: 0
    destroy: 0
    scale: {x: 1, y: 1, z: 1}
    rotation: {x: 0, y: 0, z: 0}
    shift: {x: 0, y: 0, z: 0}
  effects: []
  sounds: []
