%YAML 1.1
%TAG !u! tag:unity3d.com,2011:
--- !u!114 &11400000
MonoBehaviour:
  m_ObjectHideFlags: 0
  m_CorrespondingSourceObject: {fileID: 0}
  m_PrefabInstance: {fileID: 0}
  m_PrefabAsset: {fileID: 0}
  m_GameObject: {fileID: 0}
  m_Enabled: 1
  m_EditorHideFlags: 0
  m_Script: {fileID: 11500000, guid: c8e9570a6f2d0c24fa46f569a134ff13, type: 3}
  m_Name: seArcaneOneStackBlow
  m_EditorClassIdentifier: 
  type: 8
  targets: 2
  modifierType: 0
  transformEffectType: 0
  magicEffectType: 1
  prefabToCreate: {fileID: 0}
  otherEffectType: 1
  condition: 
  cast: {fileID: 0}
  sameSpellsOnTarget: 0
  dontCastIfSpellExists: 0
  sameSpellsOnOthers: 0
  castToCheck: {fileID: 11400000, guid: f58b18929c0ee7f48b2e1943f8d3322c, type: 2}
  castForExchange: {fileID: 11400000, guid: 3cb8ab1aea66f954ab2c288370256cf8, type: 2}
  checkOnTarget: 1
  checkOnOthers: 0
  createOnChargeMagics: 0
  chargesCount: 2
  effectID: e0e378d9-489a-4645-8e40-d5840782a00b
