%YAML 1.1
%TAG !u! tag:unity3d.com,2011:
--- !u!114 &11400000
MonoBehaviour:
  m_ObjectHideFlags: 0
  m_CorrespondingSourceObject: {fileID: 0}
  m_PrefabInstance: {fileID: 0}
  m_PrefabAsset: {fileID: 0}
  m_GameObject: {fileID: 0}
  m_Enabled: 1
  m_EditorHideFlags: 0
  m_Script: {fileID: 11500000, guid: afb94b2b65b3c2243830d6b76fc7f4e8, type: 3}
  m_Name: csEnergyStorm
  m_EditorClassIdentifier: 
  castIcon: {fileID: 21300000, guid: 1b9255e5bc049ad409ec4c4fe76ae537, type: 3}
  castSound: {fileID: 0}
  energyCost: 75
  createAt: 0
  offset: {x: 0, y: 0.2, z: 0}
  canBeInterrupted: 0
  chargeTime: 0
  castAnim: 1
  castAnimNum: 0
  canMoveWhileCharging: 1
  cooldownTime: 6
  spellLifeTimeModifier: 0
  indicator:
    type: 0
    scale: 1
  spellParameters:
  - config: {fileID: 11400000, guid: be9bd280d53e646409088b39d43d399d, type: 2}
    chargePlank: 0
    number: 1
    angle: 0
    addOffset: {x: 0, y: 0, z: 0}
  - config: {fileID: 11400000, guid: e7ec0cd97ad60c246a73a5c564e5b59d, type: 2}
    chargePlank: 0
    number: 1
    angle: 0
    addOffset: {x: 0, y: 0, z: 0}
  - config: {fileID: 11400000, guid: 4fc61cd223e0d6e4e86e41cd2cca9ef6, type: 2}
    chargePlank: 0
    number: 1
    angle: 0
    addOffset: {x: 0, y: 0, z: 0}
  - config: {fileID: 11400000, guid: 1807fff4b0e711144b94394af7e4ea36, type: 2}
    chargePlank: 0
    number: 1
    angle: 0
    addOffset: {x: 0, y: 0, z: 0}
