%YAML 1.1
%TAG !u! tag:unity3d.com,2011:
--- !u!114 &11400000
MonoBehaviour:
  m_ObjectHideFlags: 0
  m_CorrespondingSourceObject: {fileID: 0}
  m_PrefabInstance: {fileID: 0}
  m_PrefabAsset: {fileID: 0}
  m_GameObject: {fileID: 0}
  m_Enabled: 1
  m_EditorHideFlags: 0
  m_Script: {fileID: 11500000, guid: 8c883f5aa27b56d4c8fa55dff688d8b6, type: 3}
  m_Name: cfg_wpn_bow_unarmed_melee
  m_EditorClassIdentifier: 
  weaponPrefab: {fileID: 0}
  hasStats: 0
  damage: 5
  fightDistance: 1
  attackCooldown: 1.5
  canAttackWhileMove: 1
  weaponType: 1
  ranged: 0
  projectilePrefab: {fileID: 0}
  spell: {fileID: 0}
  predictChance: 0
