%YAML 1.1
%TAG !u! tag:unity3d.com,2011:
--- !u!114 &11400000
MonoBehaviour:
  m_ObjectHideFlags: 0
  m_CorrespondingSourceObject: {fileID: 0}
  m_PrefabInstance: {fileID: 0}
  m_PrefabAsset: {fileID: 0}
  m_GameObject: {fileID: 0}
  m_Enabled: 1
  m_EditorHideFlags: 0
  m_Script: {fileID: 11500000, guid: 8c883f5aa27b56d4c8fa55dff688d8b6, type: 3}
  m_Name: cfg_wpn_regenerator
  m_EditorClassIdentifier: 
  weaponPrefab: {fileID: 0}
  hasStats: 1
  damage: 10
  fightDistance: 11
  attackCooldown: 4
  canAttackWhileMove: 0
  weaponType: 4
  ranged: 1
  projectilePrefab: {fileID: 4882009840416028965, guid: 3bb2d30e1b514834781293be537cf477,
    type: 3}
  spell: {fileID: 11400000, guid: a1a9260de6e06eb439baf3f9db0cd37b, type: 2}
  predictChance: 0
