%YAML 1.1
%TAG !u! tag:unity3d.com,2011:
--- !u!114 &11400000
MonoBehaviour:
  m_ObjectHideFlags: 0
  m_CorrespondingSourceObject: {fileID: 0}
  m_PrefabInstance: {fileID: 0}
  m_PrefabAsset: {fileID: 0}
  m_GameObject: {fileID: 0}
  m_Enabled: 1
  m_EditorHideFlags: 0
  m_Script: {fileID: 11500000, guid: afb94b2b65b3c2243830d6b76fc7f4e8, type: 3}
  m_Name: csDash
  m_EditorClassIdentifier: 
  castIcon: {fileID: 21300000, guid: 2d30a83bfcefa5842b04e83d8c6fab09, type: 3}
  castSound: {fileID: 0}
  energyCost: 0
  createAt: 0
  offset: {x: 0, y: 1, z: 0.5}
  canBeInterrupted: 0
  chargeTime: 0
  castAnim: 1
  castAnimNum: 0
  canMoveWhileCharging: 1
  cooldownTime: 2
  spellLifeTimeModifier: 0.12
  indicator:
    type: 0
    scale: 1
  spellParameters:
  - config: {fileID: 11400000, guid: e17f1cc6386f3ef4395616e695aec2b4, type: 2}
    chargePlank: 0
    number: 1
    angle: 0
    addOffset: {x: 0, y: 0, z: 0}
  - config: {fileID: 11400000, guid: 7e95081c14da77e41a17a7369de95657, type: 2}
    chargePlank: 0
    number: 1
    angle: 0
    addOffset: {x: 0, y: 0, z: 0}
  - config: {fileID: 11400000, guid: 8341ba82980380143af851d61358918a, type: 2}
    chargePlank: 0
    number: 1
    angle: 0
    addOffset: {x: 0, y: 0, z: 0}
  - config: {fileID: 11400000, guid: f4f99c6871037cd48bbc0d1bea8a8cbc, type: 2}
    chargePlank: 0
    number: 1
    angle: 0
    addOffset: {x: 0, y: 0, z: 0}
