%YAML 1.1
%TAG !u! tag:unity3d.com,2011:
--- !u!114 &11400000
MonoBehaviour:
  m_ObjectHideFlags: 0
  m_CorrespondingSourceObject: {fileID: 0}
  m_PrefabInstance: {fileID: 0}
  m_PrefabAsset: {fileID: 0}
  m_GameObject: {fileID: 0}
  m_Enabled: 1
  m_EditorHideFlags: 0
  m_Script: {fileID: 11500000, guid: 79f990bc9c8e2f04da0cec50d4cee533, type: 3}
  m_Name: spFireChargableWeak
  m_EditorClassIdentifier: 
  type: 0
  lifeTime: 0.4
  refreshTime: 0
  flight:
    speed: 15
    maxSpeed: 15
    acceleration: 0
    accelerationDelay: 0
  rotation:
    delay: 0
    time: 0
    speed: {x: 0, y: 0, z: 0}
    acceleration: {x: 0, y: 0, z: 0}
  autoAim:
    delay: 0
    time: 0
    speed: 0
  random:
    autoAimDelay: 0
    accelerationDelay: 0
    flightSpread:
      min: 0
      max: 3
      randomSign: 1
    creationSpread:
      min: {x: 0, y: 0, z: 0}
      max: {x: 0, y: 0, z: 0}
      randomSign: 1
  collisionType: 4
  onCollisionEvent: 2
  colliderType: 2
  colliderMesh: {fileID: 0}
  colliderSize: {x: 1, y: 1, z: 1}
  colliderCenter: {x: 0, y: 0, z: 0}
  colliderRadius: 0.3
  colliderHeight: 1
  colliderDirection: 1
  whoIsParent: 0
  prefabToCreate: {fileID: 0}
  mustBeUnique: 0
  objectID: 3ef086dd-ac57-467d-af3b-88ae55017209
  particles:
  - prefab: {fileID: 1674465740985726, guid: 84aa18db8bc5f0e499349ac0315c053d, type: 3}
    eventName: 0
    destination: 0
    attach: 0
    destroy: 0
    scale: {x: 2, y: 2, z: 2}
    rotation: {x: 0, y: 0, z: 0}
    shift: {x: 0, y: 0, z: 0}
  - prefab: {fileID: 1815553834518870, guid: 7674f5091cc9ae049a2ad44f3eb88a4c, type: 3}
    eventName: 0
    destination: 0
    attach: 1
    destroy: 0
    scale: {x: 2, y: 2, z: 2}
    rotation: {x: 0, y: 0, z: 0}
    shift: {x: 0, y: 0, z: 0}
  - prefab: {fileID: 1148822200931852, guid: cc935b40c7d235649855a8e56da498ef, type: 3}
    eventName: 2
    destination: 0
    attach: 0
    destroy: 0
    scale: {x: 2, y: 2, z: 2}
    rotation: {x: 0, y: 0, z: 0}
    shift: {x: 0, y: 0, z: 0}
  effects:
  - effect: {fileID: 11400000, guid: 067a5c0ba1fe3f2459325cdcea4d2ec0, type: 2}
    eventName: 2
    values:
      amount: 25
      duration: 0
      random: 0
  - effect: {fileID: 11400000, guid: be4fa9133af74614ab38bfa0c992503a, type: 2}
    eventName: 4
    values:
      amount: 0
      duration: 0
      random: 0
  - effect: {fileID: 11400000, guid: 4d8bd4d9aac6f644184122c7d37e04ff, type: 2}
    eventName: 4
    values:
      amount: 0.1
      duration: 1
      random: 0
  sounds: []
