%YAML 1.1
%TAG !u! tag:unity3d.com,2011:
--- !u!114 &1
MonoBehaviour:
  m_ObjectHideFlags: 61
  m_CorrespondingSourceObject: {fileID: 0}
  m_PrefabInstance: {fileID: 0}
  m_PrefabAsset: {fileID: 0}
  m_GameObject: {fileID: 0}
  m_Enabled: 1
  m_EditorHideFlags: 0
  m_Script: {fileID: 11500000, guid: b0418102af804844b91c4865b41013e4, type: 3}
  m_Name: 
  m_EditorClassIdentifier: 
  _autoSaveEnabled: 0
  _cleanEmptyDirectoriesFeature: 0
  _prepareOnPlaymode: 1
  _checkForUpdates: 0
