%YAML 1.1
%TAG !u! tag:unity3d.com,2011:
--- !u!114 &11400000
MonoBehaviour:
  m_ObjectHideFlags: 0
  m_CorrespondingSourceObject: {fileID: 0}
  m_PrefabInstance: {fileID: 0}
  m_PrefabAsset: {fileID: 0}
  m_GameObject: {fileID: 0}
  m_Enabled: 1
  m_EditorHideFlags: 0
  m_Script: {fileID: 11500000, guid: afb94b2b65b3c2243830d6b76fc7f4e8, type: 3}
  m_Name: Rocks
  m_EditorClassIdentifier: 
  castIcon: {fileID: 21300000, guid: 1a570d19d6cd7944b99a753c70f6803d, type: 3}
  castSound: {fileID: 8300000, guid: d0746bbbd675a404f817783963950327, type: 3}
  element: 5
  createAt: 0
  canBeInterrupted: 0
  offset: {x: 0, y: 0, z: 0}
  chargeTime: 0.5
  canMoveWhileCharging: 1
  cooldownTime: 0.5
  spellParameters:
  - chargePlank: 0
    number: 1
    angle: 0
    config: {fileID: 11400000, guid: 459e5a9d924f2bc40a5f97fbd95f8a1d, type: 2}
