%YAML 1.1
%TAG !u! tag:unity3d.com,2011:
--- !u!114 &731758108866546027
MonoBehaviour:
  m_ObjectHideFlags: 0
  m_CorrespondingSourceObject: {fileID: 0}
  m_PrefabInstance: {fileID: 0}
  m_PrefabAsset: {fileID: 0}
  m_GameObject: {fileID: 5548093005452795624}
  m_Enabled: 1
  m_EditorHideFlags: 0
  m_Script: {fileID: 11500000, guid: 9dd39e965581f3148b7cacb1e311b845, type: 3}
  m_Name: 
  m_EditorClassIdentifier: 
  maxHealth: 100
  currentHealth: 0
  invulnerable: 0
  canDie: 1
  boss: 0
  healthBar: {fileID: 636487833576210369}
--- !u!1001 &115325314
PrefabInstance:
  m_ObjectHideFlags: 0
  serializedVersion: 2
  m_Modification:
    m_TransformParent: {fileID: 5548093005452795605}
    m_Modifications:
    - target: {fileID: 1620452497064428, guid: 2e5ba0f0fbb806b4395467d382875e60, type: 3}
      propertyPath: m_Name
      value: LootEssenceRed
      objectReference: {fileID: 0}
    - target: {fileID: 4408781127267618, guid: 2e5ba0f0fbb806b4395467d382875e60, type: 3}
      propertyPath: m_LocalPosition.x
      value: -0.002
      objectReference: {fileID: 0}
    - target: {fileID: 4408781127267618, guid: 2e5ba0f0fbb806b4395467d382875e60, type: 3}
      propertyPath: m_LocalPosition.y
      value: 0.523
      objectReference: {fileID: 0}
    - target: {fileID: 4408781127267618, guid: 2e5ba0f0fbb806b4395467d382875e60, type: 3}
      propertyPath: m_LocalPosition.z
      value: -0.121
      objectReference: {fileID: 0}
    - target: {fileID: 4408781127267618, guid: 2e5ba0f0fbb806b4395467d382875e60, type: 3}
      propertyPath: m_LocalRotation.x
      value: 0.7071068
      objectReference: {fileID: 0}
    - target: {fileID: 4408781127267618, guid: 2e5ba0f0fbb806b4395467d382875e60, type: 3}
      propertyPath: m_LocalRotation.y
      value: 0
      objectReference: {fileID: 0}
    - target: {fileID: 4408781127267618, guid: 2e5ba0f0fbb806b4395467d382875e60, type: 3}
      propertyPath: m_LocalRotation.z
      value: 0
      objectReference: {fileID: 0}
    - target: {fileID: 4408781127267618, guid: 2e5ba0f0fbb806b4395467d382875e60, type: 3}
      propertyPath: m_LocalRotation.w
      value: 0.7071068
      objectReference: {fileID: 0}
    - target: {fileID: 4408781127267618, guid: 2e5ba0f0fbb806b4395467d382875e60, type: 3}
      propertyPath: m_RootOrder
      value: 4
      objectReference: {fileID: 0}
    - target: {fileID: 4408781127267618, guid: 2e5ba0f0fbb806b4395467d382875e60, type: 3}
      propertyPath: m_LocalEulerAnglesHint.x
      value: 90
      objectReference: {fileID: 0}
    - target: {fileID: 4408781127267618, guid: 2e5ba0f0fbb806b4395467d382875e60, type: 3}
      propertyPath: m_LocalEulerAnglesHint.y
      value: 0
      objectReference: {fileID: 0}
    - target: {fileID: 4408781127267618, guid: 2e5ba0f0fbb806b4395467d382875e60, type: 3}
      propertyPath: m_LocalEulerAnglesHint.z
      value: 0
      objectReference: {fileID: 0}
    - target: {fileID: 4408781127267618, guid: 2e5ba0f0fbb806b4395467d382875e60, type: 3}
      propertyPath: m_LocalScale.x
      value: 2
      objectReference: {fileID: 0}
    - target: {fileID: 4408781127267618, guid: 2e5ba0f0fbb806b4395467d382875e60, type: 3}
      propertyPath: m_LocalScale.y
      value: 2
      objectReference: {fileID: 0}
    - target: {fileID: 4408781127267618, guid: 2e5ba0f0fbb806b4395467d382875e60, type: 3}
      propertyPath: m_LocalScale.z
      value: 2
      objectReference: {fileID: 0}
    - target: {fileID: 199586625953191618, guid: 2e5ba0f0fbb806b4395467d382875e60,
        type: 3}
      propertyPath: m_Materials.Array.size
      value: 1
      objectReference: {fileID: 0}
    m_RemovedComponents: []
  m_SourcePrefab: {fileID: 100100000, guid: 2e5ba0f0fbb806b4395467d382875e60, type: 3}
--- !u!1001 &2648318591214711810
PrefabInstance:
  m_ObjectHideFlags: 0
  serializedVersion: 2
  m_Modification:
    m_TransformParent: {fileID: 5548093005452795605}
    m_Modifications:
    - target: {fileID: 1149051943493362, guid: 7e6767444726b234c868079dec6d7ae0, type: 3}
      propertyPath: m_IsActive
      value: 0
      objectReference: {fileID: 0}
    - target: {fileID: 1456060657882760, guid: 7e6767444726b234c868079dec6d7ae0, type: 3}
      propertyPath: m_Name
      value: DeathNormal
      objectReference: {fileID: 0}
    - target: {fileID: 1902317490556720, guid: 7e6767444726b234c868079dec6d7ae0, type: 3}
      propertyPath: m_IsActive
      value: 0
      objectReference: {fileID: 0}
    - target: {fileID: 4276890654080774, guid: 7e6767444726b234c868079dec6d7ae0, type: 3}
      propertyPath: m_LocalPosition.x
      value: 0
      objectReference: {fileID: 0}
    - target: {fileID: 4276890654080774, guid: 7e6767444726b234c868079dec6d7ae0, type: 3}
      propertyPath: m_LocalPosition.y
      value: 0.665
      objectReference: {fileID: 0}
    - target: {fileID: 4276890654080774, guid: 7e6767444726b234c868079dec6d7ae0, type: 3}
      propertyPath: m_LocalPosition.z
      value: 0
      objectReference: {fileID: 0}
    - target: {fileID: 4276890654080774, guid: 7e6767444726b234c868079dec6d7ae0, type: 3}
      propertyPath: m_LocalRotation.x
      value: -0.7071068
      objectReference: {fileID: 0}
    - target: {fileID: 4276890654080774, guid: 7e6767444726b234c868079dec6d7ae0, type: 3}
      propertyPath: m_LocalRotation.y
      value: -0
      objectReference: {fileID: 0}
    - target: {fileID: 4276890654080774, guid: 7e6767444726b234c868079dec6d7ae0, type: 3}
      propertyPath: m_LocalRotation.z
      value: -0
      objectReference: {fileID: 0}
    - target: {fileID: 4276890654080774, guid: 7e6767444726b234c868079dec6d7ae0, type: 3}
      propertyPath: m_LocalRotation.w
      value: 0.7071068
      objectReference: {fileID: 0}
    - target: {fileID: 4276890654080774, guid: 7e6767444726b234c868079dec6d7ae0, type: 3}
      propertyPath: m_RootOrder
      value: 3
      objectReference: {fileID: 0}
    - target: {fileID: 4276890654080774, guid: 7e6767444726b234c868079dec6d7ae0, type: 3}
      propertyPath: m_LocalEulerAnglesHint.x
      value: 0
      objectReference: {fileID: 0}
    - target: {fileID: 4276890654080774, guid: 7e6767444726b234c868079dec6d7ae0, type: 3}
      propertyPath: m_LocalEulerAnglesHint.y
      value: 0
      objectReference: {fileID: 0}
    - target: {fileID: 4276890654080774, guid: 7e6767444726b234c868079dec6d7ae0, type: 3}
      propertyPath: m_LocalEulerAnglesHint.z
      value: 0
      objectReference: {fileID: 0}
    - target: {fileID: 4276890654080774, guid: 7e6767444726b234c868079dec6d7ae0, type: 3}
      propertyPath: m_LocalScale.x
      value: 1
      objectReference: {fileID: 0}
    - target: {fileID: 4276890654080774, guid: 7e6767444726b234c868079dec6d7ae0, type: 3}
      propertyPath: m_LocalScale.y
      value: 1
      objectReference: {fileID: 0}
    - target: {fileID: 4276890654080774, guid: 7e6767444726b234c868079dec6d7ae0, type: 3}
      propertyPath: m_LocalScale.z
      value: 1
      objectReference: {fileID: 0}
    - target: {fileID: 198325895038918106, guid: 7e6767444726b234c868079dec6d7ae0,
        type: 3}
      propertyPath: simulationSpeed
      value: 2
      objectReference: {fileID: 0}
    - target: {fileID: 199190068728638284, guid: 7e6767444726b234c868079dec6d7ae0,
        type: 3}
      propertyPath: m_Materials.Array.size
      value: 1
      objectReference: {fileID: 0}
    - target: {fileID: 199363001785557724, guid: 7e6767444726b234c868079dec6d7ae0,
        type: 3}
      propertyPath: m_Materials.Array.size
      value: 1
      objectReference: {fileID: 0}
    - target: {fileID: 199560386596186148, guid: 7e6767444726b234c868079dec6d7ae0,
        type: 3}
      propertyPath: m_Materials.Array.size
      value: 1
      objectReference: {fileID: 0}
    - target: {fileID: 199703950192871762, guid: 7e6767444726b234c868079dec6d7ae0,
        type: 3}
      propertyPath: m_Materials.Array.size
      value: 1
      objectReference: {fileID: 0}
    - target: {fileID: 199768439479257792, guid: 7e6767444726b234c868079dec6d7ae0,
        type: 3}
      propertyPath: m_Materials.Array.size
      value: 1
      objectReference: {fileID: 0}
    - target: {fileID: 199873013496938948, guid: 7e6767444726b234c868079dec6d7ae0,
        type: 3}
      propertyPath: m_Materials.Array.size
      value: 1
      objectReference: {fileID: 0}
    - target: {fileID: 199967715390083356, guid: 7e6767444726b234c868079dec6d7ae0,
        type: 3}
      propertyPath: m_Materials.Array.size
      value: 1
      objectReference: {fileID: 0}
    m_RemovedComponents: []
  m_SourcePrefab: {fileID: 100100000, guid: 7e6767444726b234c868079dec6d7ae0, type: 3}
--- !u!1001 &6505938269388437725
PrefabInstance:
  m_ObjectHideFlags: 0
  serializedVersion: 2
  m_Modification:
    m_TransformParent: {fileID: 5548093005452795605}
    m_Modifications:
    - target: {fileID: 1877307886535162, guid: fda5edc93819a5946901f75bc534ac54, type: 3}
      propertyPath: m_Name
      value: Character_Tormented_Soul
      objectReference: {fileID: 0}
    - target: {fileID: 4946351356562766, guid: fda5edc93819a5946901f75bc534ac54, type: 3}
      propertyPath: m_LocalPosition.x
      value: 0
      objectReference: {fileID: 0}
    - target: {fileID: 4946351356562766, guid: fda5edc93819a5946901f75bc534ac54, type: 3}
      propertyPath: m_LocalPosition.y
      value: 0
      objectReference: {fileID: 0}
    - target: {fileID: 4946351356562766, guid: fda5edc93819a5946901f75bc534ac54, type: 3}
      propertyPath: m_LocalPosition.z
      value: 0
      objectReference: {fileID: 0}
    - target: {fileID: 4946351356562766, guid: fda5edc93819a5946901f75bc534ac54, type: 3}
      propertyPath: m_LocalRotation.x
      value: 0
      objectReference: {fileID: 0}
    - target: {fileID: 4946351356562766, guid: fda5edc93819a5946901f75bc534ac54, type: 3}
      propertyPath: m_LocalRotation.y
      value: 0
      objectReference: {fileID: 0}
    - target: {fileID: 4946351356562766, guid: fda5edc93819a5946901f75bc534ac54, type: 3}
      propertyPath: m_LocalRotation.z
      value: 0
      objectReference: {fileID: 0}
    - target: {fileID: 4946351356562766, guid: fda5edc93819a5946901f75bc534ac54, type: 3}
      propertyPath: m_LocalRotation.w
      value: 1
      objectReference: {fileID: 0}
    - target: {fileID: 4946351356562766, guid: fda5edc93819a5946901f75bc534ac54, type: 3}
      propertyPath: m_RootOrder
      value: 2
      objectReference: {fileID: 0}
    - target: {fileID: 4946351356562766, guid: fda5edc93819a5946901f75bc534ac54, type: 3}
      propertyPath: m_LocalEulerAnglesHint.x
      value: 0
      objectReference: {fileID: 0}
    - target: {fileID: 4946351356562766, guid: fda5edc93819a5946901f75bc534ac54, type: 3}
      propertyPath: m_LocalEulerAnglesHint.y
      value: 0
      objectReference: {fileID: 0}
    - target: {fileID: 4946351356562766, guid: fda5edc93819a5946901f75bc534ac54, type: 3}
      propertyPath: m_LocalEulerAnglesHint.z
      value: 0
      objectReference: {fileID: 0}
    - target: {fileID: 95303867828160866, guid: fda5edc93819a5946901f75bc534ac54,
        type: 3}
      propertyPath: m_Enabled
      value: 0
      objectReference: {fileID: 0}
    m_RemovedComponents: []
  m_SourcePrefab: {fileID: 100100000, guid: fda5edc93819a5946901f75bc534ac54, type: 3}
--- !u!1001 &6534508773174915833
PrefabInstance:
  m_ObjectHideFlags: 0
  serializedVersion: 2
  m_Modification:
    m_TransformParent: {fileID: 0}
    m_Modifications:
    - target: {fileID: 1201025327, guid: 3b6294c805812f447bdd9ea200bbf07d, type: 3}
      propertyPath: m_IsKinematic
      value: 1
      objectReference: {fileID: 0}
    - target: {fileID: 1608335003644881937, guid: 3b6294c805812f447bdd9ea200bbf07d,
        type: 3}
      propertyPath: m_Name
      value: enemy_ghost_material
      objectReference: {fileID: 0}
    - target: {fileID: 1608335003644881938, guid: 3b6294c805812f447bdd9ea200bbf07d,
        type: 3}
      propertyPath: team
      value: 1
      objectReference: {fileID: 0}
    - target: {fileID: 1608335003644881939, guid: 3b6294c805812f447bdd9ea200bbf07d,
        type: 3}
      propertyPath: invulnerable
      value: 0
      objectReference: {fileID: 0}
    - target: {fileID: 1608335003644881960, guid: 3b6294c805812f447bdd9ea200bbf07d,
        type: 3}
      propertyPath: acceleration
      value: 4
      objectReference: {fileID: 0}
    - target: {fileID: 1608335003644881960, guid: 3b6294c805812f447bdd9ea200bbf07d,
        type: 3}
      propertyPath: maxSpeed
      value: 8
      objectReference: {fileID: 0}
    - target: {fileID: 1608335003644881960, guid: 3b6294c805812f447bdd9ea200bbf07d,
        type: 3}
      propertyPath: minSpeed
      value: 3
      objectReference: {fileID: 0}
    - target: {fileID: 1608335003644881961, guid: 3b6294c805812f447bdd9ea200bbf07d,
        type: 3}
      propertyPath: m_WarningMessage
      value: 
      objectReference: {fileID: 0}
    - target: {fileID: 1608335003644881961, guid: 3b6294c805812f447bdd9ea200bbf07d,
        type: 3}
      propertyPath: m_Avatar
      value: 
      objectReference: {fileID: 9000000, guid: b6ef2f4d0154b2747860a3332fa05f97, type: 3}
    - target: {fileID: 1608335003644881961, guid: 3b6294c805812f447bdd9ea200bbf07d,
        type: 3}
      propertyPath: m_Controller
      value: 
      objectReference: {fileID: 22100000, guid: e002d199ac69e7849b7f6e9bf4701086,
        type: 2}
    - target: {fileID: 1608335003644881964, guid: 3b6294c805812f447bdd9ea200bbf07d,
        type: 3}
      propertyPath: m_LocalPosition.x
      value: 43.07118
      objectReference: {fileID: 0}
    - target: {fileID: 1608335003644881964, guid: 3b6294c805812f447bdd9ea200bbf07d,
        type: 3}
      propertyPath: m_LocalPosition.y
      value: 0.0061059
      objectReference: {fileID: 0}
    - target: {fileID: 1608335003644881964, guid: 3b6294c805812f447bdd9ea200bbf07d,
        type: 3}
      propertyPath: m_LocalPosition.z
      value: 41.65669
      objectReference: {fileID: 0}
    - target: {fileID: 1608335003644881964, guid: 3b6294c805812f447bdd9ea200bbf07d,
        type: 3}
      propertyPath: m_LocalRotation.x
      value: 0
      objectReference: {fileID: 0}
    - target: {fileID: 1608335003644881964, guid: 3b6294c805812f447bdd9ea200bbf07d,
        type: 3}
      propertyPath: m_LocalRotation.y
      value: 0
      objectReference: {fileID: 0}
    - target: {fileID: 1608335003644881964, guid: 3b6294c805812f447bdd9ea200bbf07d,
        type: 3}
      propertyPath: m_LocalRotation.z
      value: 0
      objectReference: {fileID: 0}
    - target: {fileID: 1608335003644881964, guid: 3b6294c805812f447bdd9ea200bbf07d,
        type: 3}
      propertyPath: m_LocalRotation.w
      value: 1
      objectReference: {fileID: 0}
    - target: {fileID: 1608335003644881964, guid: 3b6294c805812f447bdd9ea200bbf07d,
        type: 3}
      propertyPath: m_RootOrder
      value: 0
      objectReference: {fileID: 0}
    - target: {fileID: 1608335003644881964, guid: 3b6294c805812f447bdd9ea200bbf07d,
        type: 3}
      propertyPath: m_LocalEulerAnglesHint.x
      value: 0
      objectReference: {fileID: 0}
    - target: {fileID: 1608335003644881964, guid: 3b6294c805812f447bdd9ea200bbf07d,
        type: 3}
      propertyPath: m_LocalEulerAnglesHint.y
      value: 0
      objectReference: {fileID: 0}
    - target: {fileID: 1608335003644881964, guid: 3b6294c805812f447bdd9ea200bbf07d,
        type: 3}
      propertyPath: m_LocalEulerAnglesHint.z
      value: 0
      objectReference: {fileID: 0}
    - target: {fileID: 1608335003644881965, guid: 3b6294c805812f447bdd9ea200bbf07d,
        type: 3}
      propertyPath: skills.Array.size
      value: 1
      objectReference: {fileID: 0}
    - target: {fileID: 1608335003644881965, guid: 3b6294c805812f447bdd9ea200bbf07d,
        type: 3}
      propertyPath: aggroRadius
      value: 90
      objectReference: {fileID: 0}
    - target: {fileID: 1608335003644881965, guid: 3b6294c805812f447bdd9ea200bbf07d,
        type: 3}
      propertyPath: skills.Array.data[0].cast
      value: 
      objectReference: {fileID: 11400000, guid: 386cb948c5367904c8446469e33a21aa,
        type: 2}
    - target: {fileID: 1608335003644881965, guid: 3b6294c805812f447bdd9ea200bbf07d,
        type: 3}
      propertyPath: skills.Array.data[0].condition
      value: 
      objectReference: {fileID: 11400000, guid: 56fbea414132d5e47a3afe2c9f29f376,
        type: 2}
    - target: {fileID: 1608335003644881965, guid: 3b6294c805812f447bdd9ea200bbf07d,
        type: 3}
      propertyPath: skills.Array.data[1].cast
      value: 
      objectReference: {fileID: 11400000, guid: d44952e1661b2e748a098b8c035d0598,
        type: 2}
    - target: {fileID: 1608335003644881965, guid: 3b6294c805812f447bdd9ea200bbf07d,
        type: 3}
      propertyPath: skills.Array.data[1].condition
      value: 
      objectReference: {fileID: 11400000, guid: e752a36ffc1b7974785408165931f1ef,
        type: 2}
    - target: {fileID: 1608335003644881965, guid: 3b6294c805812f447bdd9ea200bbf07d,
        type: 3}
      propertyPath: skills.Array.data[1].chanceTimer.cd
      value: 1
      objectReference: {fileID: 0}
    - target: {fileID: 1608335003644881965, guid: 3b6294c805812f447bdd9ea200bbf07d,
        type: 3}
      propertyPath: skills.Array.data[1].chanceTimer.prob
      value: 0.5
      objectReference: {fileID: 0}
    - target: {fileID: 1608335003644881965, guid: 3b6294c805812f447bdd9ea200bbf07d,
        type: 3}
      propertyPath: skills.Array.data[2].cast
      value: 
      objectReference: {fileID: 11400000, guid: 0f6d948e6e15f5e438ac6306c13d3b53,
        type: 2}
    - target: {fileID: 1608335003644881965, guid: 3b6294c805812f447bdd9ea200bbf07d,
        type: 3}
      propertyPath: skills.Array.data[2].condition
      value: 
      objectReference: {fileID: 0}
    - target: {fileID: 1608335003644881965, guid: 3b6294c805812f447bdd9ea200bbf07d,
        type: 3}
      propertyPath: skills.Array.data[2].chanceTimer.cd
      value: 2
      objectReference: {fileID: 0}
    - target: {fileID: 1608335003644881965, guid: 3b6294c805812f447bdd9ea200bbf07d,
        type: 3}
      propertyPath: skills.Array.data[2].chanceTimer.prob
      value: 0.25
      objectReference: {fileID: 0}
    - target: {fileID: 1608335003644881965, guid: 3b6294c805812f447bdd9ea200bbf07d,
        type: 3}
      propertyPath: skills.Array.data[0].chanceTimer.cd
      value: 0
      objectReference: {fileID: 0}
    - target: {fileID: 1608335003644881965, guid: 3b6294c805812f447bdd9ea200bbf07d,
        type: 3}
      propertyPath: skills.Array.data[0].chanceTimer.prob
      value: 1
      objectReference: {fileID: 0}
    - target: {fileID: 1608335003644881967, guid: 3b6294c805812f447bdd9ea200bbf07d,
        type: 3}
      propertyPath: m_Speed
      value: 6.2
      objectReference: {fileID: 0}
    - target: {fileID: 1608335003644881967, guid: 3b6294c805812f447bdd9ea200bbf07d,
        type: 3}
      propertyPath: m_Acceleration
      value: 20
      objectReference: {fileID: 0}
    - target: {fileID: 1608335003644881967, guid: 3b6294c805812f447bdd9ea200bbf07d,
        type: 3}
      propertyPath: m_AngularSpeed
      value: 1000
      objectReference: {fileID: 0}
    - target: {fileID: 1608335003644881967, guid: 3b6294c805812f447bdd9ea200bbf07d,
        type: 3}
      propertyPath: m_AutoBraking
      value: 0
      objectReference: {fileID: 0}
    - target: {fileID: 4592334920848915445, guid: 3b6294c805812f447bdd9ea200bbf07d,
        type: 3}
      propertyPath: rightHandWeapon
      value: 
      objectReference: {fileID: 11400000, guid: b4fb3105b95237243b9a2d5d9de436b9,
        type: 2}
    - target: {fileID: 4592334920848915445, guid: 3b6294c805812f447bdd9ea200bbf07d,
        type: 3}
      propertyPath: leftHandWeapon
      value: 
      objectReference: {fileID: 0}
    - target: {fileID: 5943202658846590741, guid: 3b6294c805812f447bdd9ea200bbf07d,
        type: 3}
      propertyPath: m_RootOrder
      value: 0
      objectReference: {fileID: 0}
    - target: {fileID: 8576404531813962197, guid: 3b6294c805812f447bdd9ea200bbf07d,
        type: 3}
      propertyPath: m_RootOrder
      value: 1
      objectReference: {fileID: 0}
    m_RemovedComponents:
    - {fileID: 1608335003644881939, guid: 3b6294c805812f447bdd9ea200bbf07d, type: 3}
  m_SourcePrefab: {fileID: 100100000, guid: 3b6294c805812f447bdd9ea200bbf07d, type: 3}
--- !u!1 &5548093005452795624 stripped
GameObject:
  m_CorrespondingSourceObject: {fileID: 1608335003644881937, guid: 3b6294c805812f447bdd9ea200bbf07d,
    type: 3}
  m_PrefabInstance: {fileID: 6534508773174915833}
  m_PrefabAsset: {fileID: 0}
--- !u!4 &5548093005452795605 stripped
Transform:
  m_CorrespondingSourceObject: {fileID: 1608335003644881964, guid: 3b6294c805812f447bdd9ea200bbf07d,
    type: 3}
  m_PrefabInstance: {fileID: 6534508773174915833}
  m_PrefabAsset: {fileID: 0}
--- !u!114 &636487833576210369 stripped
MonoBehaviour:
  m_CorrespondingSourceObject: {fileID: 5943202658749336888, guid: 3b6294c805812f447bdd9ea200bbf07d,
    type: 3}
  m_PrefabInstance: {fileID: 6534508773174915833}
  m_PrefabAsset: {fileID: 0}
  m_GameObject: {fileID: 0}
  m_Enabled: 1
  m_EditorHideFlags: 0
  m_Script: {fileID: 11500000, guid: 85b7fcdc4c54fb64abc129d4490639bb, type: 3}
  m_Name: 
  m_EditorClassIdentifier: 
