%YAML 1.1
%TAG !u! tag:unity3d.com,2011:
--- !u!114 &11400000
MonoBehaviour:
  m_ObjectHideFlags: 0
  m_CorrespondingSourceObject: {fileID: 0}
  m_PrefabInstance: {fileID: 0}
  m_PrefabAsset: {fileID: 0}
  m_GameObject: {fileID: 0}
  m_Enabled: 1
  m_EditorHideFlags: 0
  m_Script: {fileID: 11500000, guid: bddb899a76145fb45b489a6fbbb3e67e, type: 3}
  m_Name: ItmAttackDamageMultiplier
  m_EditorClassIdentifier: 
  iconSprite: {fileID: 21300000, guid: df7324bc3e8f0f44eb4d62b034836806, type: 3}
  maxLevel: 5
  bonusType: 0
  attackBonus: 0
  defenseBonus: 0
  shieldBonus: 0
  resourcesBonus: 0
  castParamsBonus: 0
  bonusValueType: 0
  startValue: 500
  valuePerLevel: 100
  eventCastParameters:
    castEvent: 0
    cooldown: 0
    cast: {fileID: 0}
    castWithAttachments: 0
  attachedItems: []
