%YAML 1.1
%TAG !u! tag:unity3d.com,2011:
--- !u!114 &11400000
MonoBehaviour:
  m_ObjectHideFlags: 0
  m_CorrespondingSourceObject: {fileID: 0}
  m_PrefabInstance: {fileID: 0}
  m_PrefabAsset: {fileID: 0}
  m_GameObject: {fileID: 0}
  m_Enabled: 1
  m_EditorHideFlags: 0
  m_Script: {fileID: 11500000, guid: 79f990bc9c8e2f04da0cec50d4cee533, type: 3}
  m_Name: spFireShotgunDot
  m_EditorClassIdentifier: 
  type: 1
  lifeTime: 3.1
  refreshTime: 0.5
  flight:
    speed: 0
    maxSpeed: 0
    acceleration: 0
    accelerationDelay: 0
  autoAim:
    delay: 0
    time: 0
    speed: 0
  random:
    autoAimDelay: 0
    accelerationDelay: 0
    flightSpread:
      min: 0
      max: 0
      randomSign: 1
    creationSpread:
      min: {x: 0, y: 0, z: 0}
      max: {x: 0, y: 0, z: 0}
      randomSign: 1
  collisionType: 4
  onCollisionEvent: 2
  colliderType: 0
  colliderMesh: {fileID: 0}
  colliderSize: {x: 1, y: 1, z: 1}
  colliderCenter: {x: 0, y: 0, z: 0}
  colliderRadius: 0.5
  colliderHeight: 1
  colliderDirection: 1
  prefabToCreate: {fileID: 0}
  mustBeUnique: 0
  objectID: ecfa9b8b-354d-4761-98d9-509adc224743
  particles:
  - prefab: {fileID: 1447580427615694, guid: f2f0290d3408ff142a53c78d213833dd, type: 3}
    eventName: 0
    destination: 2
    attach: 1
    destroyAfterPlay: 0
    scale: {x: 1.5, y: 1.5, z: 1.5}
    rotation: {x: 0, y: 0, z: 0}
    shift: {x: 0, y: 0, z: 0}
  - prefab: {fileID: 1070101629368536, guid: 1ef475ebfb44d964bb2037eaa9db1cb2, type: 3}
    eventName: 0
    destination: 2
    attach: 0
    destroyAfterPlay: 1
    scale: {x: 1, y: 1, z: 1}
    rotation: {x: 0, y: 0, z: 0}
    shift: {x: 0, y: 0, z: 0}
  - prefab: {fileID: 1070101629368536, guid: 1ef475ebfb44d964bb2037eaa9db1cb2, type: 3}
    eventName: 1
    destination: 2
    attach: 0
    destroyAfterPlay: 1
    scale: {x: 1, y: 1, z: 1}
    rotation: {x: 0, y: 0, z: 0}
    shift: {x: 0, y: 0, z: 0}
  effects:
  - effect: {fileID: 11400000, guid: 067a5c0ba1fe3f2459325cdcea4d2ec0, type: 2}
    eventName: 3
    values:
      amount: 8
      duration: 0
      random: 0
  sounds: []
