%YAML 1.1
%TAG !u! tag:unity3d.com,2011:
--- !u!1 &8448282504331324514
GameObject:
  m_ObjectHideFlags: 0
  m_CorrespondingSourceObject: {fileID: 0}
  m_PrefabInstance: {fileID: 0}
  m_PrefabAsset: {fileID: 0}
  serializedVersion: 6
  m_Component:
  - component: {fileID: 3129298874570080358}
  m_Layer: 0
  m_Name: wpn_greatsword_curved
  m_TagString: Untagged
  m_Icon: {fileID: 0}
  m_NavMeshLayer: 0
  m_StaticEditorFlags: 0
  m_IsActive: 1
--- !u!4 &3129298874570080358
Transform:
  m_ObjectHideFlags: 0
  m_CorrespondingSourceObject: {fileID: 0}
  m_PrefabInstance: {fileID: 0}
  m_PrefabAsset: {fileID: 0}
  m_GameObject: {fileID: 8448282504331324514}
  m_LocalRotation: {x: 0.00000009520095, y: 0.000000085681656, z: 0.000000049531437,
    w: 1}
  m_LocalPosition: {x: 0, y: 0, z: 0}
  m_LocalScale: {x: 1, y: 1, z: 1}
  m_Children:
  - {fileID: 4829295268278169398}
  m_Father: {fileID: 0}
  m_RootOrder: 0
  m_LocalEulerAnglesHint: {x: 0, y: 0, z: 0}
--- !u!1001 &4829295268278506006
PrefabInstance:
  m_ObjectHideFlags: 0
  serializedVersion: 2
  m_Modification:
    m_TransformParent: {fileID: 3129298874570080358}
    m_Modifications:
    - target: {fileID: 155340, guid: e6138525164fc714a9e749b7608ec9b3, type: 3}
      propertyPath: m_Name
      value: SM_Wep_Greatsword_Curved_01
      objectReference: {fileID: 0}
    - target: {fileID: 155340, guid: e6138525164fc714a9e749b7608ec9b3, type: 3}
      propertyPath: m_IsActive
      value: 1
      objectReference: {fileID: 0}
    - target: {fileID: 458016, guid: e6138525164fc714a9e749b7608ec9b3, type: 3}
      propertyPath: m_LocalPosition.x
      value: 0.107998945
      objectReference: {fileID: 0}
    - target: {fileID: 458016, guid: e6138525164fc714a9e749b7608ec9b3, type: 3}
      propertyPath: m_LocalPosition.y
      value: 0.06700007
      objectReference: {fileID: 0}
    - target: {fileID: 458016, guid: e6138525164fc714a9e749b7608ec9b3, type: 3}
      propertyPath: m_LocalPosition.z
      value: 0.007999441
      objectReference: {fileID: 0}
    - target: {fileID: 458016, guid: e6138525164fc714a9e749b7608ec9b3, type: 3}
      propertyPath: m_LocalRotation.x
      value: 0.68501204
      objectReference: {fileID: 0}
    - target: {fileID: 458016, guid: e6138525164fc714a9e749b7608ec9b3, type: 3}
      propertyPath: m_LocalRotation.y
      value: -0.27006608
      objectReference: {fileID: 0}
    - target: {fileID: 458016, guid: e6138525164fc714a9e749b7608ec9b3, type: 3}
      propertyPath: m_LocalRotation.z
      value: 0.46200052
      objectReference: {fileID: 0}
    - target: {fileID: 458016, guid: e6138525164fc714a9e749b7608ec9b3, type: 3}
      propertyPath: m_LocalRotation.w
      value: -0.49434635
      objectReference: {fileID: 0}
    - target: {fileID: 458016, guid: e6138525164fc714a9e749b7608ec9b3, type: 3}
      propertyPath: m_RootOrder
      value: 0
      objectReference: {fileID: 0}
    - target: {fileID: 458016, guid: e6138525164fc714a9e749b7608ec9b3, type: 3}
      propertyPath: m_LocalEulerAnglesHint.x
      value: 334.677
      objectReference: {fileID: 0}
    - target: {fileID: 458016, guid: e6138525164fc714a9e749b7608ec9b3, type: 3}
      propertyPath: m_LocalEulerAnglesHint.y
      value: -264.645
      objectReference: {fileID: 0}
    - target: {fileID: 458016, guid: e6138525164fc714a9e749b7608ec9b3, type: 3}
      propertyPath: m_LocalEulerAnglesHint.z
      value: 246.15799
      objectReference: {fileID: 0}
    m_RemovedComponents: []
  m_SourcePrefab: {fileID: 100100000, guid: e6138525164fc714a9e749b7608ec9b3, type: 3}
--- !u!4 &4829295268278169398 stripped
Transform:
  m_CorrespondingSourceObject: {fileID: 458016, guid: e6138525164fc714a9e749b7608ec9b3,
    type: 3}
  m_PrefabInstance: {fileID: 4829295268278506006}
  m_PrefabAsset: {fileID: 0}
