%YAML 1.1
%TAG !u! tag:unity3d.com,2011:
--- !u!1 &2857586624309136984
GameObject:
  m_ObjectHideFlags: 0
  m_CorrespondingSourceObject: {fileID: 0}
  m_PrefabInstance: {fileID: 0}
  m_PrefabAsset: {fileID: 0}
  serializedVersion: 6
  m_Component:
  - component: {fileID: 1051052563320826611}
  m_Layer: 0
  m_Name: wpn_rune_axe
  m_TagString: Untagged
  m_Icon: {fileID: 0}
  m_NavMeshLayer: 0
  m_StaticEditorFlags: 0
  m_IsActive: 1
--- !u!4 &1051052563320826611
Transform:
  m_ObjectHideFlags: 0
  m_CorrespondingSourceObject: {fileID: 0}
  m_PrefabInstance: {fileID: 0}
  m_PrefabAsset: {fileID: 0}
  m_GameObject: {fileID: 2857586624309136984}
  m_LocalRotation: {x: 0, y: 0, z: 0, w: 1}
  m_LocalPosition: {x: 0, y: 0, z: 0}
  m_LocalScale: {x: 1, y: 1, z: 1}
  m_Children:
  - {fileID: 2005143263246161653}
  m_Father: {fileID: 0}
  m_RootOrder: 0
  m_LocalEulerAnglesHint: {x: 0, y: 0, z: 0}
--- !u!1001 &2005143263245785261
PrefabInstance:
  m_ObjectHideFlags: 0
  serializedVersion: 2
  m_Modification:
    m_TransformParent: {fileID: 1051052563320826611}
    m_Modifications:
    - target: {fileID: 120062, guid: 333115a38baafb145a712bf764f1284d, type: 3}
      propertyPath: m_Name
      value: SM_Wep_Axe_Rune_01
      objectReference: {fileID: 0}
    - target: {fileID: 120062, guid: 333115a38baafb145a712bf764f1284d, type: 3}
      propertyPath: m_IsActive
      value: 1
      objectReference: {fileID: 0}
    - target: {fileID: 413272, guid: 333115a38baafb145a712bf764f1284d, type: 3}
      propertyPath: m_LocalPosition.x
      value: 0.114
      objectReference: {fileID: 0}
    - target: {fileID: 413272, guid: 333115a38baafb145a712bf764f1284d, type: 3}
      propertyPath: m_LocalPosition.y
      value: 0.04
      objectReference: {fileID: 0}
    - target: {fileID: 413272, guid: 333115a38baafb145a712bf764f1284d, type: 3}
      propertyPath: m_LocalPosition.z
      value: -0.059
      objectReference: {fileID: 0}
    - target: {fileID: 413272, guid: 333115a38baafb145a712bf764f1284d, type: 3}
      propertyPath: m_LocalRotation.x
      value: 0.6895504
      objectReference: {fileID: 0}
    - target: {fileID: 413272, guid: 333115a38baafb145a712bf764f1284d, type: 3}
      propertyPath: m_LocalRotation.y
      value: -0.26516092
      objectReference: {fileID: 0}
    - target: {fileID: 413272, guid: 333115a38baafb145a712bf764f1284d, type: 3}
      propertyPath: m_LocalRotation.z
      value: 0.4551993
      objectReference: {fileID: 0}
    - target: {fileID: 413272, guid: 333115a38baafb145a712bf764f1284d, type: 3}
      propertyPath: m_LocalRotation.w
      value: -0.49699455
      objectReference: {fileID: 0}
    - target: {fileID: 413272, guid: 333115a38baafb145a712bf764f1284d, type: 3}
      propertyPath: m_RootOrder
      value: 0
      objectReference: {fileID: 0}
    - target: {fileID: 413272, guid: 333115a38baafb145a712bf764f1284d, type: 3}
      propertyPath: m_LocalEulerAnglesHint.x
      value: 333.64
      objectReference: {fileID: 0}
    - target: {fileID: 413272, guid: 333115a38baafb145a712bf764f1284d, type: 3}
      propertyPath: m_LocalEulerAnglesHint.y
      value: -264.134
      objectReference: {fileID: 0}
    - target: {fileID: 413272, guid: 333115a38baafb145a712bf764f1284d, type: 3}
      propertyPath: m_LocalEulerAnglesHint.z
      value: 245.935
      objectReference: {fileID: 0}
    m_RemovedComponents: []
  m_SourcePrefab: {fileID: 100100000, guid: 333115a38baafb145a712bf764f1284d, type: 3}
--- !u!4 &2005143263246161653 stripped
Transform:
  m_CorrespondingSourceObject: {fileID: 413272, guid: 333115a38baafb145a712bf764f1284d,
    type: 3}
  m_PrefabInstance: {fileID: 2005143263245785261}
  m_PrefabAsset: {fileID: 0}
