%YAML 1.1
%TAG !u! tag:unity3d.com,2011:
--- !u!114 &11400000
MonoBehaviour:
  m_ObjectHideFlags: 0
  m_CorrespondingSourceObject: {fileID: 0}
  m_PrefabInstance: {fileID: 0}
  m_PrefabAsset: {fileID: 0}
  m_GameObject: {fileID: 0}
  m_Enabled: 1
  m_EditorHideFlags: 0
  m_Script: {fileID: 11500000, guid: 79f990bc9c8e2f04da0cec50d4cee533, type: 3}
  m_Name: spChaoticSwapCreator
  m_EditorClassIdentifier: 
  type: 1
  lifeTime: 7
  refreshTime: 0
  flight:
    speed: 0
    maxSpeed: 0
    acceleration: 0
    accelerationDelay: 0
  autoAim:
    delay: 0
    time: 0
    speed: 0
  random:
    autoAimDelay: 0
    accelerationDelay: 0
    flightSpread:
      min: 0
      max: 0
      randomSign: 1
    creationSpread:
      min: {x: 0, y: 0, z: 0}
      max: {x: 0, y: 0, z: 0}
      randomSign: 1
  collisionType: 4
  onCollisionEvent: 2
  colliderType: 0
  colliderMesh: {fileID: 0}
  colliderSize: {x: 1, y: 1, z: 1}
  colliderCenter: {x: 0, y: 0, z: 0}
  colliderRadius: 0.5
  colliderHeight: 1
  colliderDirection: 1
  prefabToCreate: {fileID: 0}
  mustBeUnique: 0
  objectID: 13e4c647-6790-44b9-9223-9b3107be83c2
  particles:
  - prefab: {fileID: 1586826114847994, guid: 2b0d7f8f779c4ed4b96621647861c04c, type: 3}
    eventName: 0
    destination: 2
    attach: 0
    destroyAfterPlay: 0
    scale: {x: 2, y: 2, z: 2}
    rotation: {x: 90, y: 0, z: 0}
    shift: {x: 0, y: 0, z: 7}
  effects:
  - effect: {fileID: 11400000, guid: 168d391eb8de7a940a6465652655c2fa, type: 2}
    eventName: 0
    values:
      amount: 0
      duration: 0
      random: 0
  - effect: {fileID: 11400000, guid: 1f335de7ce84f4e4daff0c3f39226b65, type: 2}
    eventName: 1
    values:
      amount: 0
      duration: 0
      random: 0
  sounds: []
