%YAML 1.1
%TAG !u! tag:unity3d.com,2011:
--- !u!114 &11400000
MonoBehaviour:
  m_ObjectHideFlags: 0
  m_CorrespondingSourceObject: {fileID: 0}
  m_PrefabInstance: {fileID: 0}
  m_PrefabAsset: {fileID: 0}
  m_GameObject: {fileID: 0}
  m_Enabled: 1
  m_EditorHideFlags: 0
  m_Script: {fileID: 11500000, guid: 79f990bc9c8e2f04da0cec50d4cee533, type: 3}
  m_Name: spNatureSMGBullet
  m_EditorClassIdentifier: 
  type: 0
  lifeTime: 0.8
  refreshTime: 0
  flight:
    speed: 5
    maxSpeed: 20
    acceleration: 40
    accelerationDelay: 0.05
  rotation:
    delay: 0
    time: 0
    speed: {x: 0, y: 0, z: 0}
    acceleration: {x: 0, y: 0, z: 0}
  autoAim:
    delay: 0
    time: 0
    speed: 0
  random:
    autoAimDelay: 0
    accelerationDelay: 0
    flightSpread:
      min: 0
      max: 6
      randomSign: 1
    creationSpread:
      min: {x: 0, y: 0, z: 0}
      max: {x: 0.6, y: 0, z: 0}
      randomSign: 1
  collisionType: 4
  onCollisionEvent: 2
  colliderType: 2
  colliderMesh: {fileID: 0}
  colliderSize: {x: 1, y: 1, z: 1}
  colliderCenter: {x: 0, y: 0, z: 0}
  colliderRadius: 0.4
  colliderHeight: 1
  colliderDirection: 1
  whoIsParent: 0
  prefabToCreate: {fileID: 0}
  mustBeUnique: 0
  objectID: d978cbff-4d5f-4696-bbcf-5cff0c90ca45
  particles:
  - prefab: {fileID: 1113609617205198, guid: 57e054da813b6e74fae8acaf5de0fe70, type: 3}
    eventName: 0
    destination: 0
    attach: 0
    destroy: 0
    scale: {x: 1, y: 1, z: 1}
    rotation: {x: 0, y: 0, z: 0}
    shift: {x: 0, y: 0, z: 0}
  - prefab: {fileID: 1388311059012338, guid: 11ebc95fb2334b24595f8f4be74b836b, type: 3}
    eventName: 1
    destination: 0
    attach: 0
    destroy: 0
    scale: {x: 1, y: 1, z: 1}
    rotation: {x: 0, y: 0, z: 0}
    shift: {x: 0, y: 0, z: 0}
  - prefab: {fileID: 1125631312857916, guid: 1fb987e456f521d448b6af876f4bd450, type: 3}
    eventName: 0
    destination: 0
    attach: 1
    destroy: 0
    scale: {x: 1, y: 1, z: 1}
    rotation: {x: 90, y: 0, z: 0}
    shift: {x: 0, y: 0, z: 0}
  effects:
  - effect: {fileID: 11400000, guid: 067a5c0ba1fe3f2459325cdcea4d2ec0, type: 2}
    eventName: 2
    values:
      amount: 35
      duration: 0
      random: 0
  - effect: {fileID: 11400000, guid: 4d8bd4d9aac6f644184122c7d37e04ff, type: 2}
    eventName: 2
    values:
      amount: 0.7
      duration: 0.5
      random: 0
  sounds: []
